\relax 
\providecommand\hyper@newdestlabel[2]{}
\providecommand\BKM@entry[2]{}
\providecommand*{\memsetcounter}[2]{}
\providecommand\HyperFirstAtBeginDocument{\AtBeginDocument}
\HyperFirstAtBeginDocument{\ifx\hyper@anchor\@undefined
\global\let\oldcontentsline\contentsline
\gdef\contentsline#1#2#3#4{\oldcontentsline{#1}{#2}{#3}}
\global\let\oldnewlabel\newlabel
\gdef\newlabel#1#2{\newlabelxx{#1}#2}
\gdef\newlabelxx#1#2#3#4#5#6{\oldnewlabel{#1}{{#2}{#3}}}
\AtEndDocument{\ifx\hyper@anchor\@undefined
\let\contentsline\oldcontentsline
\let\newlabel\oldnewlabel
\fi}
\fi}
\global\let\hyper@last\relax 
\gdef\HyperFirstAtBeginDocument#1{#1}
\providecommand\HyField@AuxAddToFields[1]{}
\providecommand\HyField@AuxAddToCoFields[2]{}
\catcode `:\active 
\catcode `;\active 
\catcode `!\active 
\catcode `?\active 
\catcode `"\active 
\catcode `<\active 
\catcode `>\active 
\@nameuse{es@quoting}
\citation{abnt-url-package=url}
\@writefile{toc}{\changetocdepth  {4}}
\select@language{brazil}
\@writefile{toc}{\select@language{brazil}}
\@writefile{lof}{\select@language{brazil}}
\@writefile{lot}{\select@language{brazil}}
\select@language{english}
\@writefile{toc}{\select@language{english}}
\@writefile{lof}{\select@language{english}}
\@writefile{lot}{\select@language{english}}
\BKM@entry{id=1,dest={6368617074657262312E30},srcline={191}}{5469746C652070616765}
\BKM@entry{id=2,dest={6368617074657262322E30},srcline={281}}{417070726F76616C}
\BKM@entry{id=3,dest={746F632E30},srcline={453}}{436F6E74656E7473}
\@writefile{toc}{\setlength  {\cftchapterindent }{\cftlastnumwidth } \setlength  {\cftchapternumwidth }{2em}}
\BKM@entry{id=4,dest={636861707465722E31},srcline={468}}{496E74726F64756374696F6E}
\BKM@entry{id=5,dest={73656374696F6E2E312E31},srcline={474}}{436F6E74657874}
\citation{signori2016digital}
\citation{newman2016reuters}
\citation{doyle2015multi}
\citation{newman2016reuters}
\citation{tandoc2014journalism}
\@writefile{toc}{\setlength  {\cftchapterindent }{0em} \setlength  {\cftchapternumwidth }{\cftlastnumwidth }}
\@writefile{toc}{\contentsline {chapter}{\chapternumberline {1}\MakeTextUppercase  {Introduction}}{7}{chapter.1}}
\@writefile{toc}{\contentsline {section}{\numberline {1.1}Context}{7}{section.1.1}}
\@writefile{brf}{\backcite{signori2016digital}{{7}{1.1}{section.1.1}}}
\@writefile{brf}{\backcite{newman2016reuters}{{7}{1.1}{section.1.1}}}
\@writefile{brf}{\backcite{doyle2015multi}{{7}{1.1}{section.1.1}}}
\@writefile{brf}{\backcite{newman2016reuters}{{7}{1.1}{section.1.1}}}
\@writefile{brf}{\backcite{tandoc2014journalism}{{7}{1.1}{section.1.1}}}
\citation{cherubini2016editorial}
\citation{song2016multi}
\BKM@entry{id=6,dest={73656374696F6E2E312E32},srcline={503}}{4F626A65637469766573}
\BKM@entry{id=7,dest={73756273656374696F6E2E312E322E31},srcline={506}}{47656E6572616C204F626A65637469766573}
\BKM@entry{id=8,dest={73756273656374696F6E2E312E322E32},srcline={509}}{5370656369666963204F626A65637469766573}
\@writefile{brf}{\backcite{cherubini2016editorial}{{8}{1.1}{section.1.1}}}
\@writefile{brf}{\backcite{song2016multi}{{8}{1.1}{section.1.1}}}
\@writefile{toc}{\contentsline {section}{\numberline {1.2}Objectives}{8}{section.1.2}}
\@writefile{toc}{\contentsline {subsection}{\numberline {1.2.1}General Objectives}{8}{subsection.1.2.1}}
\@writefile{toc}{\contentsline {subsection}{\numberline {1.2.2}Specific Objectives}{8}{subsection.1.2.2}}
\BKM@entry{id=9,dest={73656374696F6E2E312E33},srcline={521}}{53747564792072656C6576616E6365}
\@writefile{toc}{\contentsline {section}{\numberline {1.3}Study relevance}{9}{section.1.3}}
\BKM@entry{id=10,dest={636861707465722E32},srcline={530}}{477275706F205242532C205A65726F20486F726120616E6420746865204D6564696120427573696E65737320696E204272617A696C}
\BKM@entry{id=11,dest={73656374696F6E2E322E31},srcline={533}}{4D6564696120427573696E65737320696E204272617A696C}
\citation{newman2016reuters}
\citation{newman2016reuters}
\BKM@entry{id=12,dest={73656374696F6E2E322E32},srcline={540}}{477275706F20524253}
\citation{amanha500maioressul}
\citation{gruporbs2017site}
\citation{g12016rbsvendesc}
\BKM@entry{id=13,dest={73656374696F6E2E322E33},srcline={547}}{5A65726F20486F7261}
\citation{zeroHoraIVC}
\citation{faccin2009zero}
\@writefile{toc}{\setlength  {\cftchapterindent }{0em} \setlength  {\cftchapternumwidth }{\cftlastnumwidth }}
\@writefile{toc}{\contentsline {chapter}{\chapternumberline {2}\MakeTextUppercase  {Grupo RBS, Zero Hora and the Media Business in Brazil}}{11}{chapter.2}}
\@writefile{toc}{\contentsline {section}{\numberline {2.1}Media Business in Brazil}{11}{section.2.1}}
\@writefile{brf}{\backcite{newman2016reuters}{{11}{2.1}{section.2.1}}}
\@writefile{brf}{\backcite{newman2016reuters}{{11}{2.1}{section.2.1}}}
\@writefile{toc}{\contentsline {section}{\numberline {2.2}Grupo RBS}{11}{section.2.2}}
\@writefile{brf}{\backcite{amanha500maioressul}{{11}{2.2}{section.2.2}}}
\@writefile{brf}{\backcite{gruporbs2017site}{{11}{2.2}{section.2.2}}}
\@writefile{brf}{\backcite{g12016rbsvendesc}{{11}{2.2}{section.2.2}}}
\citation{coletiva2016pertojunto}
\citation{zh2015zhtablet}
\citation{zh2015zhdigital}
\citation{zh2016newsletter}
\BKM@entry{id=14,dest={73656374696F6E2E322E34},srcline={556}}{437573746F6D657220457870657269656E6365206174205A65726F20486F7261}
\@writefile{toc}{\contentsline {section}{\numberline {2.3}Zero Hora}{12}{section.2.3}}
\@writefile{brf}{\backcite{zeroHoraIVC}{{12}{2.3}{section.2.3}}}
\@writefile{brf}{\backcite{faccin2009zero}{{12}{2.3}{section.2.3}}}
\@writefile{brf}{\backcite{coletiva2016pertojunto}{{12}{2.3}{section.2.3}}}
\@writefile{brf}{\backcite{zh2015zhtablet}{{12}{2.3}{section.2.3}}}
\@writefile{brf}{\backcite{zh2015zhdigital}{{12}{2.3}{section.2.3}}}
\@writefile{brf}{\backcite{zh2016newsletter}{{12}{2.3}{section.2.3}}}
\@writefile{toc}{\contentsline {section}{\numberline {2.4}Customer Experience at Zero Hora}{12}{section.2.4}}
\BKM@entry{id=15,dest={636861707465722E33},srcline={576}}{52656C6174656420576F726B}
\BKM@entry{id=16,dest={73656374696F6E2E332E31},srcline={580}}{4E6577732044617461204D696E696E67}
\citation{aggarwal2012mining}
\citation{cherubini2016editorial}
\citation{grandesDadosgloboBigData}
\BKM@entry{id=17,dest={73656374696F6E2E332E32},srcline={592}}{4E657773205265636F6D6D656E646174696F6E2053797374656D73}
\citation{li2014modeling}
\@writefile{toc}{\setlength  {\cftchapterindent }{0em} \setlength  {\cftchapternumwidth }{\cftlastnumwidth }}
\@writefile{toc}{\contentsline {chapter}{\chapternumberline {3}\MakeTextUppercase  {Related Work}}{15}{chapter.3}}
\@writefile{toc}{\contentsline {section}{\numberline {3.1}News Data Mining}{15}{section.3.1}}
\@writefile{brf}{\backcite{aggarwal2012mining}{{15}{3.1}{section.3.1}}}
\@writefile{brf}{\backcite{cherubini2016editorial}{{15}{3.1}{section.3.1}}}
\@writefile{brf}{\backcite{grandesDadosgloboBigData}{{15}{3.1}{section.3.1}}}
\citation{shi2014collaborative}
\citation{ji2016regularized}
\citation{das2007google}
\citation{bai2017exploiting}
\citation{gu2016personalized}
\BKM@entry{id=18,dest={73756273656374696F6E2E332E322E31},srcline={601}}{436F6C6C61626F7261746976652046696C746572696E67}
\citation{shi2014collaborative}
\citation{dong2015ubs}
\citation{lin2014personalized}
\citation{lu2014scalable;bouras2014improving;das2007google}
\citation{das2007google}
\citation{shi2014collaborative}
\citation{das2007google}
\citation{das2007google}
\citation{ji2016regularized}
\citation{koren2009matrix}
\@writefile{toc}{\contentsline {section}{\numberline {3.2}News Recommendation Systems}{16}{section.3.2}}
\@writefile{brf}{\backcite{li2014modeling}{{16}{3.2}{section.3.2}}}
\@writefile{brf}{\backcite{shi2014collaborative}{{16}{3.2}{section.3.2}}}
\@writefile{brf}{\backcite{ji2016regularized}{{16}{3.2}{section.3.2}}}
\@writefile{brf}{\backcite{das2007google}{{16}{3.2}{section.3.2}}}
\@writefile{brf}{\backcite{bai2017exploiting}{{16}{3.2}{section.3.2}}}
\@writefile{brf}{\backcite{gu2016personalized}{{16}{3.2}{section.3.2}}}
\@writefile{toc}{\contentsline {subsection}{\numberline {3.2.1}Collaborative Filtering}{16}{subsection.3.2.1}}
\@writefile{brf}{\backcite{shi2014collaborative}{{16}{3.2.1}{subsection.3.2.1}}}
\@writefile{brf}{\backcite{dong2015ubs}{{16}{3.2.1}{subsection.3.2.1}}}
\@writefile{brf}{\backcite{lin2014personalized}{{16}{3.2.1}{subsection.3.2.1}}}
\@writefile{brf}{\backcite{lu2014scalable;bouras2014improving;das2007google}{{16}{3.2.1}{subsection.3.2.1}}}
\@writefile{brf}{\backcite{das2007google}{{16}{3.2.1}{subsection.3.2.1}}}
\@writefile{brf}{\backcite{shi2014collaborative}{{16}{3.2.1}{subsection.3.2.1}}}
\@writefile{brf}{\backcite{das2007google}{{16}{3.2.1}{subsection.3.2.1}}}
\@writefile{brf}{\backcite{das2007google}{{16}{3.2.1}{subsection.3.2.1}}}
\@writefile{brf}{\backcite{ji2016regularized}{{16}{3.2.1}{subsection.3.2.1}}}
\BKM@entry{id=19,dest={73756273656374696F6E2E332E322E32},srcline={610}}{436F6E74656E742D62617365642046696C746572696E67}
\citation{gu2016personalized}
\BKM@entry{id=20,dest={73756273656374696F6E2E332E322E33},srcline={613}}{48796272696420617070726F6163686573}
\citation{gu2016personalized}
\citation{lu2014scalable}
\citation{bouras2014improving}
\citation{li2014modeling}
\citation{jonnalagedda2016incorporating}
\citation{bai2017exploiting}
\BKM@entry{id=21,dest={73756273656374696F6E2E332E322E34},srcline={618}}{4D61696E204368616C6C656E676573}
\citation{lin2014personalized}
\citation{kille2015stream}
\@writefile{brf}{\backcite{koren2009matrix}{{17}{3.2.1}{subsection.3.2.1}}}
\@writefile{toc}{\contentsline {subsection}{\numberline {3.2.2}Content-based Filtering}{17}{subsection.3.2.2}}
\@writefile{brf}{\backcite{gu2016personalized}{{17}{3.2.2}{subsection.3.2.2}}}
\@writefile{toc}{\contentsline {subsection}{\numberline {3.2.3}Hybrid approaches}{17}{subsection.3.2.3}}
\@writefile{brf}{\backcite{gu2016personalized}{{17}{3.2.3}{subsection.3.2.3}}}
\@writefile{brf}{\backcite{lu2014scalable}{{17}{3.2.3}{subsection.3.2.3}}}
\@writefile{brf}{\backcite{bouras2014improving}{{17}{3.2.3}{subsection.3.2.3}}}
\@writefile{brf}{\backcite{li2014modeling}{{17}{3.2.3}{subsection.3.2.3}}}
\@writefile{brf}{\backcite{jonnalagedda2016incorporating}{{17}{3.2.3}{subsection.3.2.3}}}
\@writefile{brf}{\backcite{bai2017exploiting}{{17}{3.2.3}{subsection.3.2.3}}}
\@writefile{toc}{\contentsline {subsection}{\numberline {3.2.4}Main Challenges}{17}{subsection.3.2.4}}
\citation{zheng2013penetrate}
\citation{song2016multi}
\citation{li2014modeling}
\citation{lu2014scalable}
\citation{zheng2013penetrate}
\citation{jonnalagedda2016incorporating}
\citation{lin2014personalized}
\BKM@entry{id=22,dest={73656374696F6E2E332E33},srcline={632}}{436C757374657220416E616C79736973}
\citation{everitt2011cluster}
\citation{hair2013multivariate}
\@writefile{brf}{\backcite{lin2014personalized, kille2015stream}{{18}{3.2.4}{subsection.3.2.4}}}
\@writefile{brf}{\backcite{lin2014personalized, kille2015stream}{{18}{3.2.4}{subsection.3.2.4}}}
\@writefile{brf}{\backcite{zheng2013penetrate}{{18}{3.2.4}{subsection.3.2.4}}}
\@writefile{brf}{\backcite{song2016multi}{{18}{3.2.4}{subsection.3.2.4}}}
\@writefile{brf}{\backcite{li2014modeling}{{18}{3.2.4}{subsection.3.2.4}}}
\@writefile{brf}{\backcite{lu2014scalable}{{18}{3.2.4}{subsection.3.2.4}}}
\@writefile{brf}{\backcite{zheng2013penetrate, jonnalagedda2016incorporating,lin2014personalized}{{18}{3.2.4}{subsection.3.2.4}}}
\@writefile{brf}{\backcite{zheng2013penetrate, jonnalagedda2016incorporating,lin2014personalized}{{18}{3.2.4}{subsection.3.2.4}}}
\@writefile{brf}{\backcite{zheng2013penetrate, jonnalagedda2016incorporating,lin2014personalized}{{18}{3.2.4}{subsection.3.2.4}}}
\@writefile{toc}{\contentsline {section}{\numberline {3.3}Cluster Analysis}{18}{section.3.3}}
\@writefile{brf}{\backcite{everitt2011cluster}{{18}{3.3}{section.3.3}}}
\@writefile{brf}{\backcite{hair2013multivariate}{{18}{3.3}{section.3.3}}}
\BKM@entry{id=23,dest={73756273656374696F6E2E332E332E31},srcline={659}}{4D656173757265206F662053696D696C6172697479}
\@writefile{toc}{\contentsline {subsection}{\numberline {3.3.1}Measure of Similarity}{20}{subsection.3.3.1}}
\BKM@entry{id=24,dest={73756273656374696F6E2E332E332E32},srcline={682}}{4E756D626572206F6620436C757374657273}
\citation{baxter1994exploratory}
\@writefile{toc}{\contentsline {subsection}{\numberline {3.3.2}Number of Clusters}{22}{subsection.3.3.2}}
\citation{rousseeuw1990finding}
\BKM@entry{id=25,dest={73756273656374696F6E2E332E332E33},srcline={693}}{436C7573746572732056616C69646174696F6E}
\@writefile{brf}{\backcite{baxter1994exploratory}{{23}{3.3.2}{subsection.3.3.2}}}
\@writefile{brf}{\backcite{rousseeuw1990finding}{{23}{3.3.2}{subsection.3.3.2}}}
\@writefile{toc}{\contentsline {subsection}{\numberline {3.3.3}Clusters Validation}{23}{subsection.3.3.3}}
\BKM@entry{id=26,dest={636861707465722E34},srcline={710}}{4D6574686F64}
\citation{lu2014scalable}
\citation{everitt2011cluster}
\citation{milligan1996clustering}
\citation{hair2013multivariate}
\BKM@entry{id=27,dest={73656374696F6E2E342E31},srcline={736}}{4F626A656374732053656C656374696F6E}
\@writefile{toc}{\setlength  {\cftchapterindent }{0em} \setlength  {\cftchapternumwidth }{\cftlastnumwidth }}
\@writefile{toc}{\contentsline {chapter}{\chapternumberline {4}\MakeTextUppercase  {Method}}{25}{chapter.4}}
\@writefile{brf}{\backcite{lu2014scalable}{{25}{4}{chapter.4}}}
\@writefile{brf}{\backcite{everitt2011cluster}{{25}{4}{chapter.4}}}
\@writefile{brf}{\backcite{milligan1996clustering}{{25}{4}{chapter.4}}}
\@writefile{brf}{\backcite{hair2013multivariate}{{25}{4}{chapter.4}}}
\BKM@entry{id=28,dest={73656374696F6E2E342E32},srcline={760}}{5661726961626C652053656C656374696F6E}
\BKM@entry{id=29,dest={73756273656374696F6E2E342E322E31},srcline={765}}{557365722044617461205661726961626C6573}
\citation{lu2014scalable}
\@writefile{toc}{\contentsline {section}{\numberline {4.1}Objects Selection}{26}{section.4.1}}
\@writefile{lot}{\contentsline {table}{\numberline {1}{\ignorespaces Segmentation of Digital Users at Zero Hora}}{26}{table.4.1}}
\newlabel{user-segmentation-table}{{\M@TitleReference {1}{Segmentation of Digital Users at Zero Hora}}{26}{Segmentation of Digital Users at Zero Hora}{table.4.1}{}}
\@writefile{toc}{\contentsline {section}{\numberline {4.2}Variable Selection}{26}{section.4.2}}
\@writefile{toc}{\contentsline {subsection}{\numberline {4.2.1}User Data Variables}{26}{subsection.4.2.1}}
\@writefile{brf}{\backcite{lu2014scalable}{{26}{4.2.1}{table.4.2}}}
\BKM@entry{id=30,dest={73756273656374696F6E2E342E322E32},srcline={802}}{4265686176696F75722044617461205661726961626C6573}
\citation{bouras2014improving}
\citation{mishra2014alternative}
\citation{das2007google}
\citation{lu2014scalable}
\citation{bai2017exploiting}
\citation{li2014modeling}
\citation{lu2014scalable}
\@writefile{lot}{\contentsline {table}{\numberline {2}{\ignorespaces Sample of user's data.}}{27}{table.4.2}}
\newlabel{user-data-sample}{{\M@TitleReference {2}{Sample of user's data.}}{27}{Sample of user's data}{table.4.2}{}}
\@writefile{lot}{\contentsline {table}{\numberline {3}{\ignorespaces Sample of user's behavioral data.}}{27}{table.4.3}}
\newlabel{user-behaviour-data-sample}{{\M@TitleReference {3}{Sample of user's behavioral data.}}{27}{Sample of user's behavioral data}{table.4.3}{}}
\@writefile{toc}{\contentsline {subsection}{\numberline {4.2.2}Behaviour Data Variables}{27}{subsection.4.2.2}}
\@writefile{brf}{\backcite{bouras2014improving, mishra2014alternative}{{27}{4.2.2}{subsection.4.2.2}}}
\@writefile{brf}{\backcite{bouras2014improving, mishra2014alternative}{{27}{4.2.2}{subsection.4.2.2}}}
\@writefile{brf}{\backcite{das2007google,lu2014scalable,bai2017exploiting,li2014modeling}{{27}{4.2.2}{subsection.4.2.2}}}
\@writefile{brf}{\backcite{das2007google,lu2014scalable,bai2017exploiting,li2014modeling}{{27}{4.2.2}{subsection.4.2.2}}}
\@writefile{brf}{\backcite{das2007google,lu2014scalable,bai2017exploiting,li2014modeling}{{27}{4.2.2}{subsection.4.2.2}}}
\@writefile{brf}{\backcite{das2007google,lu2014scalable,bai2017exploiting,li2014modeling}{{27}{4.2.2}{subsection.4.2.2}}}
\BKM@entry{id=31,dest={73756273656374696F6E2E342E322E33},srcline={840}}{436F6E74656E742044617461205661726961626C6573}
\citation{lu2014scalable}
\citation{li2014modeling}
\citation{zhao2016personalized}
\citation{zheng2013penetrate}
\citation{lin2014personalized}
\citation{bai2017exploiting}
\citation{gu2016personalized}
\citation{bouras2014improving}
\citation{lu2014scalable}
\@writefile{brf}{\backcite{lu2014scalable}{{28}{4.2.2}{table.4.3}}}
\@writefile{toc}{\contentsline {subsection}{\numberline {4.2.3}Content Data Variables}{28}{subsection.4.2.3}}
\@writefile{brf}{\backcite{lu2014scalable,li2014modeling,zhao2016personalized}{{28}{4.2.3}{subsection.4.2.3}}}
\@writefile{brf}{\backcite{lu2014scalable,li2014modeling,zhao2016personalized}{{28}{4.2.3}{subsection.4.2.3}}}
\@writefile{brf}{\backcite{lu2014scalable,li2014modeling,zhao2016personalized}{{28}{4.2.3}{subsection.4.2.3}}}
\@writefile{brf}{\backcite{zheng2013penetrate}{{28}{4.2.3}{subsection.4.2.3}}}
\@writefile{brf}{\backcite{lin2014personalized,bai2017exploiting,gu2016personalized,bouras2014improving}{{28}{4.2.3}{subsection.4.2.3}}}
\@writefile{brf}{\backcite{lin2014personalized,bai2017exploiting,gu2016personalized,bouras2014improving}{{28}{4.2.3}{subsection.4.2.3}}}
\@writefile{brf}{\backcite{lin2014personalized,bai2017exploiting,gu2016personalized,bouras2014improving}{{28}{4.2.3}{subsection.4.2.3}}}
\@writefile{brf}{\backcite{lin2014personalized,bai2017exploiting,gu2016personalized,bouras2014improving}{{28}{4.2.3}{subsection.4.2.3}}}
\@writefile{brf}{\backcite{lu2014scalable}{{28}{4.2.3}{table.4.4}}}
\BKM@entry{id=32,dest={73656374696F6E2E342E33},srcline={884}}{50726F78696D697479204D656173757265}
\citation{bouras2014improving}
\citation{li2014modeling}
\citation{lu2014scalable}
\citation{lu2014scalable}
\@writefile{lot}{\contentsline {table}{\numberline {4}{\ignorespaces Sample of the data about the content.}}{29}{table.4.4}}
\newlabel{content-data-sample}{{\M@TitleReference {4}{Sample of the data about the content.}}{29}{Sample of the data about the content}{table.4.4}{}}
\@writefile{toc}{\contentsline {section}{\numberline {4.3}Proximity Measure}{29}{section.4.3}}
\@writefile{brf}{\backcite{bouras2014improving}{{29}{4.3}{section.4.3}}}
\@writefile{brf}{\backcite{li2014modeling}{{29}{4.3}{section.4.3}}}
\@writefile{brf}{\backcite{lu2014scalable}{{29}{4.3}{section.4.3}}}
\@writefile{brf}{\backcite{lu2014scalable}{{29}{4.3}{section.4.3}}}
\BKM@entry{id=33,dest={73656374696F6E2E342E34},srcline={889}}{436C7573746572204D6574686F6420616E64204576616C756174696F6E}
\citation{li2014modeling}
\citation{lu2014scalable}
\citation{bouras2014improving}
\citation{li2014modeling}
\citation{lu2014scalable}
\BKM@entry{id=34,dest={73656374696F6E2E342E35},srcline={895}}{5265706C69636174696F6E20616E642054657374696E67}
\citation{li2014modeling}
\citation{das2007google}
\citation{mishra2014alternative}
\citation{ji2016regularized}
\citation{lu2014scalable}
\citation{bai2017exploiting}
\citation{jonnalagedda2016incorporating}
\citation{bouras2014improving}
\@writefile{toc}{\contentsline {section}{\numberline {4.4}Cluster Method and Evaluation}{30}{section.4.4}}
\@writefile{brf}{\backcite{li2014modeling}{{30}{4.4}{section.4.4}}}
\@writefile{brf}{\backcite{lu2014scalable}{{30}{4.4}{section.4.4}}}
\@writefile{brf}{\backcite{bouras2014improving}{{30}{4.4}{section.4.4}}}
\@writefile{brf}{\backcite{li2014modeling}{{30}{4.4}{section.4.4}}}
\@writefile{brf}{\backcite{lu2014scalable}{{30}{4.4}{section.4.4}}}
\@writefile{toc}{\contentsline {section}{\numberline {4.5}Replication and Testing}{30}{section.4.5}}
\@writefile{brf}{\backcite{li2014modeling, das2007google, mishra2014alternative,ji2016regularized, lu2014scalable,bai2017exploiting,jonnalagedda2016incorporating}{{30}{4.5}{section.4.5}}}
\@writefile{brf}{\backcite{li2014modeling, das2007google, mishra2014alternative,ji2016regularized, lu2014scalable,bai2017exploiting,jonnalagedda2016incorporating}{{30}{4.5}{section.4.5}}}
\@writefile{brf}{\backcite{li2014modeling, das2007google, mishra2014alternative,ji2016regularized, lu2014scalable,bai2017exploiting,jonnalagedda2016incorporating}{{30}{4.5}{section.4.5}}}
\@writefile{brf}{\backcite{li2014modeling, das2007google, mishra2014alternative,ji2016regularized, lu2014scalable,bai2017exploiting,jonnalagedda2016incorporating}{{30}{4.5}{section.4.5}}}
\@writefile{brf}{\backcite{li2014modeling, das2007google, mishra2014alternative,ji2016regularized, lu2014scalable,bai2017exploiting,jonnalagedda2016incorporating}{{30}{4.5}{section.4.5}}}
\@writefile{brf}{\backcite{li2014modeling, das2007google, mishra2014alternative,ji2016regularized, lu2014scalable,bai2017exploiting,jonnalagedda2016incorporating}{{30}{4.5}{section.4.5}}}
\@writefile{brf}{\backcite{li2014modeling, das2007google, mishra2014alternative,ji2016regularized, lu2014scalable,bai2017exploiting,jonnalagedda2016incorporating}{{30}{4.5}{section.4.5}}}
\@writefile{brf}{\backcite{bouras2014improving}{{30}{4.5}{section.4.5}}}
\BKM@entry{id=35,dest={73656374696F6E2E342E36},srcline={916}}{53797374656D204F76657276696577}
\@writefile{toc}{\contentsline {section}{\numberline {4.6}System Overview}{31}{section.4.6}}
\@writefile{lof}{\contentsline {figure}{\numberline {1}{\ignorespaces Distance calculation process.}}{33}{figure.4.1}}
\newlabel{fig:hybrid-distance}{{\M@TitleReference {1}{Distance calculation process.}}{33}{Distance calculation process}{figure.4.1}{}}
\BKM@entry{id=36,dest={73656374696F6E2E342E37},srcline={972}}{416E616C79736973}
\bibdata{abntex2-options,dissertacao.bib}
\@writefile{toc}{\contentsline {section}{\numberline {4.7}Analysis}{34}{section.4.7}}
\@writefile{toc}{\vspace  {\cftbeforechapterskip }}
\@writefile{toc}{\vspace  {\cftbeforechapterskip }}
\BKM@entry{id=37,dest={73656374696F6E2A2E36},srcline={3}}{4269626C696F677261706879}
\bibcite{aggarwal2012mining}{Aggarwal e Zhai 2012}
\bibciteEXPL{aggarwal2012mining}{Aggarwal e Zhai}
\bibciteIMPL{aggarwal2012mining}{AGGARWAL; ZHAI}
\bibciteYEAR{aggarwal2012mining}{2012}
\bibcite{amanha500maioressul}{Amanh\IeC {\~a} 2014}
\bibciteEXPL{amanha500maioressul}{Amanh\IeC {\~a}}
\bibciteIMPL{amanha500maioressul}{AMANH\IeC {\~a}}
\bibciteYEAR{amanha500maioressul}{2014}
\bibcite{bai2017exploiting}{Bai et al. 2017}
\bibciteEXPL{bai2017exploiting}{Bai et al.}
\bibciteIMPL{bai2017exploiting}{BAI et al.}
\bibciteYEAR{bai2017exploiting}{2017}
\bibcite{baxter1994exploratory}{Baxter 1994}
\bibciteEXPL{baxter1994exploratory}{Baxter}
\bibciteIMPL{baxter1994exploratory}{BAXTER}
\bibciteYEAR{baxter1994exploratory}{1994}
\bibcite{bouras2014improving}{Bouras e Tsogkas 2014}
\bibciteEXPL{bouras2014improving}{Bouras e Tsogkas}
\bibciteIMPL{bouras2014improving}{BOURAS; TSOGKAS}
\bibciteYEAR{bouras2014improving}{2014}
\bibcite{grandesDadosgloboBigData}{Cavani 2015}
\bibciteEXPL{grandesDadosgloboBigData}{Cavani}
\bibciteIMPL{grandesDadosgloboBigData}{CAVANI}
\bibciteYEAR{grandesDadosgloboBigData}{2015}
\bibcite{cherubini2016editorial}{Cherubini e Nielsen 2016}
\bibciteEXPL{cherubini2016editorial}{Cherubini e Nielsen}
\bibciteIMPL{cherubini2016editorial}{CHERUBINI; NIELSEN}
\bibciteYEAR{cherubini2016editorial}{2016}
\bibcite{coletiva2016pertojunto}{Coletiva.net 2016}
\bibciteEXPL{coletiva2016pertojunto}{Coletiva.net}
\bibciteIMPL{coletiva2016pertojunto}{COLETIVA.NET}
\bibciteYEAR{coletiva2016pertojunto}{2016}
\bibcite{das2007google}{Das et al. 2007}
\bibciteEXPL{das2007google}{Das et al.}
\bibciteIMPL{das2007google}{DAS et al.}
\bibciteYEAR{das2007google}{2007}
\bibcite{dong2015ubs}{Dong et al. 2015}
\bibciteEXPL{dong2015ubs}{Dong et al.}
\bibciteIMPL{dong2015ubs}{DONG et al.}
\bibciteYEAR{dong2015ubs}{2015}
\bibcite{doyle2015multi}{Doyle 2015}
\bibciteEXPL{doyle2015multi}{Doyle}
\bibciteIMPL{doyle2015multi}{DOYLE}
\bibciteYEAR{doyle2015multi}{2015}
\bibcite{everitt2011cluster}{Everitt et al. 2011}
\bibciteEXPL{everitt2011cluster}{Everitt et al.}
\bibciteIMPL{everitt2011cluster}{EVERITT et al.}
\bibciteYEAR{everitt2011cluster}{2011}
\bibcite{faccin2009zero}{FACCIN 2009}
\bibciteEXPL{faccin2009zero}{FACCIN}
\bibciteIMPL{faccin2009zero}{FACCIN}
\bibciteYEAR{faccin2009zero}{2009}
\bibcite{g12016rbsvendesc}{G1 2016}
\bibciteEXPL{g12016rbsvendesc}{G1}
\bibciteIMPL{g12016rbsvendesc}{G1}
\bibciteYEAR{g12016rbsvendesc}{2016}
\bibcite{gu2016personalized}{Gu, Dong e Chen 2016}
\bibciteEXPL{gu2016personalized}{Gu, Dong e Chen}
\bibciteIMPL{gu2016personalized}{GU; DONG; CHEN}
\bibciteYEAR{gu2016personalized}{2016}
\@writefile{toc}{\setlength  {\cftchapterindent }{\cftlastnumwidth } \setlength  {\cftchapternumwidth }{2em}}
\@writefile{toc}{\contentsline {chapter}{\uppercase {Bibliography}}{35}{section*.6}}
\bibcite{hair2013multivariate}{Hair et al. 2013}
\bibciteEXPL{hair2013multivariate}{Hair et al.}
\bibciteIMPL{hair2013multivariate}{HAIR et al.}
\bibciteYEAR{hair2013multivariate}{2013}
\bibcite{zh2015zhdigital}{Hora 2015}
\bibciteEXPL{zh2015zhdigital}{Hora}
\bibciteIMPL{zh2015zhdigital}{HORA}
\bibciteYEAR{zh2015zhdigital}{2015a}
\bibcite{zh2015zhtablet}{Hora 2015}
\bibciteEXPL{zh2015zhtablet}{Hora}
\bibciteIMPL{zh2015zhtablet}{HORA}
\bibciteYEAR{zh2015zhtablet}{2015b}
\bibcite{zh2016newsletter}{Hora 2016}
\bibciteEXPL{zh2016newsletter}{Hora}
\bibciteIMPL{zh2016newsletter}{HORA}
\bibciteYEAR{zh2016newsletter}{2016}
\bibcite{ji2016regularized}{Ji et al. 2016}
\bibciteEXPL{ji2016regularized}{Ji et al.}
\bibciteIMPL{ji2016regularized}{JI et al.}
\bibciteYEAR{ji2016regularized}{2016}
\bibcite{jonnalagedda2016incorporating}{Jonnalagedda et al. 2016}
\bibciteEXPL{jonnalagedda2016incorporating}{Jonnalagedda et al.}
\bibciteIMPL{jonnalagedda2016incorporating}{JONNALAGEDDA et al.}
\bibciteYEAR{jonnalagedda2016incorporating}{2016}
\bibcite{kille2015stream}{Kille et al. 2015}
\bibciteEXPL{kille2015stream}{Kille et al.}
\bibciteIMPL{kille2015stream}{KILLE et al.}
\bibciteYEAR{kille2015stream}{2015}
\bibcite{koren2009matrix}{Koren, Bell e Volinsky 2009}
\bibciteEXPL{koren2009matrix}{Koren, Bell e Volinsky}
\bibciteIMPL{koren2009matrix}{KOREN; BELL; VOLINSKY}
\bibciteYEAR{koren2009matrix}{2009}
\bibcite{li2014modeling}{Li et al. 2014}
\bibciteEXPL{li2014modeling}{Li et al.}
\bibciteIMPL{li2014modeling}{LI et al.}
\bibciteYEAR{li2014modeling}{2014}
\bibcite{lin2014personalized}{Lin et al. 2014}
\bibciteEXPL{lin2014personalized}{Lin et al.}
\bibciteIMPL{lin2014personalized}{LIN et al.}
\bibciteYEAR{lin2014personalized}{2014}
\bibcite{lu2014scalable}{Lu et al. 2014}
\bibciteEXPL{lu2014scalable}{Lu et al.}
\bibciteIMPL{lu2014scalable}{LU et al.}
\bibciteYEAR{lu2014scalable}{2014}
\bibcite{milligan1996clustering}{Milligan 1996}
\bibciteEXPL{milligan1996clustering}{Milligan}
\bibciteIMPL{milligan1996clustering}{MILLIGAN}
\bibciteYEAR{milligan1996clustering}{1996}
\bibcite{mishra2014alternative}{Mishra, Kumar e Bhasker 2014}
\bibciteEXPL{mishra2014alternative}{Mishra, Kumar e Bhasker}
\bibciteIMPL{mishra2014alternative}{MISHRA; KUMAR; BHASKER}
\bibciteYEAR{mishra2014alternative}{2014}
\bibcite{newman2016reuters}{Newman et al. 2016}
\bibciteEXPL{newman2016reuters}{Newman et al.}
\bibciteIMPL{newman2016reuters}{NEWMAN et al.}
\bibciteYEAR{newman2016reuters}{2016}
\bibcite{gruporbs2017site}{RBS 2017}
\bibciteEXPL{gruporbs2017site}{RBS}
\bibciteIMPL{gruporbs2017site}{RBS}
\bibciteYEAR{gruporbs2017site}{2017}
\bibcite{rousseeuw1990finding}{Rousseeuw e Kaufman 1990}
\bibciteEXPL{rousseeuw1990finding}{Rousseeuw e Kaufman}
\bibciteIMPL{rousseeuw1990finding}{ROUSSEEUW; KAUFMAN}
\bibciteYEAR{rousseeuw1990finding}{1990}
\bibcite{shi2014collaborative}{Shi, Larson e Hanjalic 2014}
\bibciteEXPL{shi2014collaborative}{Shi, Larson e Hanjalic}
\bibciteIMPL{shi2014collaborative}{SHI; LARSON; HANJALIC}
\bibciteYEAR{shi2014collaborative}{2014}
\bibcite{signori2016digital}{Signori e Flint 2016}
\bibciteEXPL{signori2016digital}{Signori e Flint}
\bibciteIMPL{signori2016digital}{SIGNORI; FLINT}
\bibciteYEAR{signori2016digital}{2016}
\bibcite{song2016multi}{Song, Elkahky e He 2016}
\bibciteEXPL{song2016multi}{Song, Elkahky e He}
\bibciteIMPL{song2016multi}{SONG; ELKAHKY; HE}
\bibciteYEAR{song2016multi}{2016}
\bibcite{tandoc2014journalism}{Tandoc 2014}
\bibciteEXPL{tandoc2014journalism}{Tandoc}
\bibciteIMPL{tandoc2014journalism}{TANDOC}
\bibciteYEAR{tandoc2014journalism}{2014}
\bibcite{zeng2016online}{Zeng et al. 2016}
\bibciteEXPL{zeng2016online}{Zeng et al.}
\bibciteIMPL{zeng2016online}{ZENG et al.}
\bibciteYEAR{zeng2016online}{2016}
\bibcite{zeroHoraIVC}{Zero 2016}
\bibciteEXPL{zeroHoraIVC}{Zero}
\bibciteIMPL{zeroHoraIVC}{ZERO}
\bibciteYEAR{zeroHoraIVC}{2016}
\bibcite{zhao2016personalized}{Zhao et al. 2016}
\bibciteEXPL{zhao2016personalized}{Zhao et al.}
\bibciteIMPL{zhao2016personalized}{ZHAO et al.}
\bibciteYEAR{zhao2016personalized}{2016}
\bibcite{zheng2013penetrate}{Zheng et al. 2013}
\bibciteEXPL{zheng2013penetrate}{Zheng et al.}
\bibciteIMPL{zheng2013penetrate}{ZHENG et al.}
\bibciteYEAR{zheng2013penetrate}{2013}
\@writefile{toc}{\vspace  {\cftbeforechapterskip }}
\newlabel{LastPage}{{}{37}{}{page.37}{}}
\xdef\lastpage@lastpage{37}
\xdef\lastpage@lastpageHy{37}
\bibstyle{abntex2-alf}
\memsetcounter{lastsheet}{39}
\memsetcounter{lastpage}{37}
