starting worker pid=20611 on localhost:11876 at 00:59:16.666
starting worker pid=20612 on localhost:11876 at 00:59:16.764
starting worker pid=20613 on localhost:11876 at 00:59:16.840
starting worker pid=20616 on localhost:11876 at 00:59:17.025
starting worker pid=20619 on localhost:11876 at 00:59:17.210
starting worker pid=20620 on localhost:11876 at 00:59:17.278
starting worker pid=20621 on localhost:11876 at 00:59:17.356
starting worker pid=20638 on localhost:11876 at 01:00:08.964
starting worker pid=20639 on localhost:11876 at 01:00:09.042
starting worker pid=20640 on localhost:11876 at 01:00:09.118
starting worker pid=20643 on localhost:11876 at 01:00:09.330
starting worker pid=20644 on localhost:11876 at 01:00:09.418
starting worker pid=20645 on localhost:11876 at 01:00:09.491
starting worker pid=20648 on localhost:11876 at 01:00:09.682
starting worker pid=20665 on localhost:11876 at 01:00:29.042
starting worker pid=20666 on localhost:11876 at 01:00:29.108
starting worker pid=20667 on localhost:11876 at 01:00:29.183
starting worker pid=20668 on localhost:11876 at 01:00:29.248
starting worker pid=20671 on localhost:11876 at 01:00:29.424
starting worker pid=20672 on localhost:11876 at 01:00:29.486
starting worker pid=20673 on localhost:11876 at 01:00:29.546
starting worker pid=20688 on localhost:11876 at 01:01:19.167
starting worker pid=20689 on localhost:11876 at 01:01:19.243
starting worker pid=20690 on localhost:11876 at 01:01:19.326
starting worker pid=20691 on localhost:11876 at 01:01:19.403
starting worker pid=20692 on localhost:11876 at 01:01:19.477
starting worker pid=20693 on localhost:11876 at 01:01:19.550
starting worker pid=20696 on localhost:11876 at 01:01:19.755
starting worker pid=20713 on localhost:11876 at 01:02:56.264
starting worker pid=20714 on localhost:11876 at 01:02:56.351
starting worker pid=20715 on localhost:11876 at 01:02:56.450
starting worker pid=20718 on localhost:11876 at 01:02:56.720
starting worker pid=20721 on localhost:11876 at 01:02:56.993
starting worker pid=20724 on localhost:11876 at 01:02:57.220
starting worker pid=20725 on localhost:11876 at 01:02:57.309
Error in socketConnection(master, port = port, blocking = TRUE, open = "a+b",  : 
  cannot open the connection
In addition: Warning message:
In socketConnection(master, port = port, blocking = TRUE, open = "a+b",  :
  localhost:11876 cannot be opened
Error in unserialize(node$con) : error reading from connection
Error in unserialize(node$con) : error reading from connection
Error in unserialize(node$con) : error reading from connection
Error in unserialize(node$con) : error reading from connection
Error in unserialize(node$con) : error reading from connection
Error in unserialize(node$con) : error reading from connection
starting worker pid=20749 on localhost:11876 at 01:03:16.214
starting worker pid=20750 on localhost:11876 at 01:03:16.273
starting worker pid=20751 on localhost:11876 at 01:03:16.335
starting worker pid=20752 on localhost:11876 at 01:03:16.396
starting worker pid=20753 on localhost:11876 at 01:03:16.462
starting worker pid=20754 on localhost:11876 at 01:03:16.521
starting worker pid=20757 on localhost:11876 at 01:03:16.717
starting worker pid=20770 on localhost:11876 at 01:04:04.678
starting worker pid=20771 on localhost:11876 at 01:04:04.782
starting worker pid=20774 on localhost:11876 at 01:04:04.998
starting worker pid=20775 on localhost:11876 at 01:04:05.086
starting worker pid=20778 on localhost:11876 at 01:04:05.291
starting worker pid=20779 on localhost:11876 at 01:04:05.376
starting worker pid=20782 on localhost:11876 at 01:04:05.576
starting worker pid=20797 on localhost:11876 at 01:05:06.232
starting worker pid=20798 on localhost:11876 at 01:05:06.313
starting worker pid=20799 on localhost:11876 at 01:05:06.411
starting worker pid=20800 on localhost:11876 at 01:05:06.514
starting worker pid=20805 on localhost:11876 at 01:05:06.872
starting worker pid=20806 on localhost:11876 at 01:05:06.968
starting worker pid=20807 on localhost:11876 at 01:05:07.061
starting worker pid=20833 on localhost:11876 at 01:10:58.723
starting worker pid=20836 on localhost:11876 at 01:10:59.516
starting worker pid=20837 on localhost:11876 at 01:10:59.631
starting worker pid=20838 on localhost:11876 at 01:10:59.767
starting worker pid=20843 on localhost:11876 at 01:11:00.136
starting worker pid=20844 on localhost:11876 at 01:11:00.298
starting worker pid=20845 on localhost:11876 at 01:11:00.455
starting worker pid=20862 on localhost:11876 at 01:12:32.143
starting worker pid=20863 on localhost:11876 at 01:12:32.292
starting worker pid=20864 on localhost:11876 at 01:12:32.447
starting worker pid=20869 on localhost:11876 at 01:12:32.955
starting worker pid=20870 on localhost:11876 at 01:12:33.204
starting worker pid=20875 on localhost:11876 at 01:12:33.780
starting worker pid=20876 on localhost:11876 at 01:12:33.911
starting worker pid=20891 on localhost:11876 at 01:18:26.920
starting worker pid=20892 on localhost:11876 at 01:18:27.023
starting worker pid=20893 on localhost:11876 at 01:18:27.140
starting worker pid=20896 on localhost:11876 at 01:18:27.405
starting worker pid=20899 on localhost:11876 at 01:18:27.673
starting worker pid=20902 on localhost:11876 at 01:18:27.973
starting worker pid=20905 on localhost:11876 at 01:18:28.219
starting worker pid=20924 on localhost:11876 at 01:20:28.032
starting worker pid=20925 on localhost:11876 at 01:20:28.123
starting worker pid=20928 on localhost:11876 at 01:20:28.724
starting worker pid=20929 on localhost:11876 at 01:20:28.845
starting worker pid=20930 on localhost:11876 at 01:20:28.946
starting worker pid=20931 on localhost:11876 at 01:20:29.059
starting worker pid=20936 on localhost:11876 at 01:20:29.401
starting worker pid=20951 on localhost:11876 at 01:22:18.987
starting worker pid=20952 on localhost:11876 at 01:22:19.129
starting worker pid=20953 on localhost:11876 at 01:22:19.270
starting worker pid=20958 on localhost:11876 at 01:22:19.772
starting worker pid=20959 on localhost:11876 at 01:22:19.890
starting worker pid=20960 on localhost:11876 at 01:22:20.023
starting worker pid=20965 on localhost:11876 at 01:22:20.465
starting worker pid=20978 on localhost:11876 at 01:22:47.799
starting worker pid=20979 on localhost:11876 at 01:22:47.958
Error in socketConnection(master, port = port, blocking = TRUE, open = "a+b",  : 
  cannot open the connection
In addition: Warning message:
In socketConnection(master, port = port, blocking = TRUE, open = "a+b",  :
  localhost:11876 cannot be opened
Error in unserialize(node$con) : error reading from connection
starting worker pid=20997 on localhost:11876 at 01:26:03.436
starting worker pid=20998 on localhost:11876 at 01:26:03.576
starting worker pid=21003 on localhost:11876 at 01:26:04.043
starting worker pid=21004 on localhost:11876 at 01:26:04.204
starting worker pid=21005 on localhost:11876 at 01:26:04.365
Error in socketConnection(master, port = port, blocking = TRUE, open = "a+b",  : 
  cannot open the connection
In addition: Warning message:
In socketConnection(master, port = port, blocking = TRUE, open = "a+b",  :
  localhost:11876 cannot be opened
Error in unserialize(node$con) : error reading from connection
Error in unserialize(node$con) : error reading from connection
Error in unserialize(node$con) : error reading from connection
Error in unserialize(node$con) : error reading from connection
starting worker pid=21088 on localhost:11433 at 01:27:54.312
starting worker pid=21089 on localhost:11433 at 01:27:54.336
starting worker pid=21090 on localhost:11433 at 01:27:54.353
starting worker pid=21091 on localhost:11433 at 01:27:54.369
starting worker pid=21092 on localhost:11433 at 01:27:54.386
starting worker pid=21093 on localhost:11433 at 01:27:54.404
starting worker pid=21094 on localhost:11433 at 01:27:54.421
starting worker pid=21109 on localhost:11433 at 01:28:19.306
starting worker pid=21110 on localhost:11433 at 01:28:19.337
starting worker pid=21111 on localhost:11433 at 01:28:19.369
starting worker pid=21112 on localhost:11433 at 01:28:19.415
starting worker pid=21115 on localhost:11433 at 01:28:19.518
starting worker pid=21116 on localhost:11433 at 01:28:19.559
starting worker pid=21117 on localhost:11433 at 01:28:19.600
starting worker pid=21577 on localhost:11389 at 01:39:14.961
starting worker pid=21578 on localhost:11389 at 01:39:14.995
starting worker pid=21579 on localhost:11389 at 01:39:15.014
starting worker pid=21580 on localhost:11389 at 01:39:15.041
Error in socketConnection(master, port = port, blocking = TRUE, open = "a+b",  : 
  cannot open the connection
In addition: Warning message:
In socketConnection(master, port = port, blocking = TRUE, open = "a+b",  :
  localhost:11389 cannot be opened
Error in unserialize(node$con) : error reading from connection
Error in unserialize(node$con) : error reading from connection
Error in unserialize(node$con) : error reading from connection
starting worker pid=21670 on localhost:11694 at 01:40:47.689
starting worker pid=21671 on localhost:11694 at 01:40:47.720
starting worker pid=21672 on localhost:11694 at 01:40:47.738
starting worker pid=21673 on localhost:11694 at 01:40:47.754
starting worker pid=21674 on localhost:11694 at 01:40:47.771
starting worker pid=21675 on localhost:11694 at 01:40:47.786
starting worker pid=21676 on localhost:11694 at 01:40:47.803
starting worker pid=21691 on localhost:11694 at 01:41:00.678
starting worker pid=21692 on localhost:11694 at 01:41:00.711
starting worker pid=21693 on localhost:11694 at 01:41:00.744
starting worker pid=21694 on localhost:11694 at 01:41:00.775
starting worker pid=21696 on localhost:11694 at 01:41:00.812
starting worker pid=21698 on localhost:11694 at 01:41:00.850
starting worker pid=21701 on localhost:11694 at 01:41:00.918
starting worker pid=21716 on localhost:11694 at 01:44:17.913
starting worker pid=21717 on localhost:11694 at 01:44:18.025
starting worker pid=21718 on localhost:11694 at 01:44:18.131
starting worker pid=21721 on localhost:11694 at 01:44:18.311
starting worker pid=21723 on localhost:11694 at 01:44:18.433
starting worker pid=21729 on localhost:11694 at 01:44:18.763
starting worker pid=21731 on localhost:11694 at 01:44:18.907
Error in socketConnection(master, port = port, blocking = TRUE, open = "a+b",  : 
  cannot open the connection
In addition: Warning message:
In socketConnection(master, port = port, blocking = TRUE, open = "a+b",  :
  localhost:11694 cannot be opened
Error in unserialize(node$con) : error reading from connection
Error in unserialize(node$con) : error reading from connection
Error in unserialize(node$con) : error reading from connection
Error in unserialize(node$con) : error reading from connection
Error in unserialize(node$con) : error reading from connection
Error in unserialize(node$con) : error reading from connection
starting worker pid=21769 on localhost:11694 at 01:47:55.546
starting worker pid=21770 on localhost:11694 at 01:47:55.677
starting worker pid=21775 on localhost:11694 at 01:47:55.957
starting worker pid=21778 on localhost:11694 at 01:47:56.258
starting worker pid=21784 on localhost:11694 at 01:47:56.574
starting worker pid=21790 on localhost:11694 at 01:47:56.850
starting worker pid=21795 on localhost:11694 at 01:47:57.067
starting worker pid=21810 on localhost:11694 at 01:48:09.432
starting worker pid=21811 on localhost:11694 at 01:48:09.504
starting worker pid=21814 on localhost:11694 at 01:48:09.605
starting worker pid=21815 on localhost:11694 at 01:48:09.713
starting worker pid=21820 on localhost:11694 at 01:48:10.025
starting worker pid=21824 on localhost:11694 at 01:48:10.307
starting worker pid=21830 on localhost:11694 at 01:48:10.584
starting worker pid=21847 on localhost:11694 at 01:51:14.656
starting worker pid=21848 on localhost:11694 at 01:51:14.751
starting worker pid=21849 on localhost:11694 at 01:51:14.846
starting worker pid=21852 on localhost:11694 at 01:51:14.950
starting worker pid=21853 on localhost:11694 at 01:51:15.046
starting worker pid=21860 on localhost:11694 at 01:51:15.463
starting worker pid=21861 on localhost:11694 at 01:51:15.554
