\relax 
\providecommand\hyper@newdestlabel[2]{}
\providecommand\BKM@entry[2]{}
\providecommand*{\memsetcounter}[2]{}
\providecommand\HyperFirstAtBeginDocument{\AtBeginDocument}
\HyperFirstAtBeginDocument{\ifx\hyper@anchor\@undefined
\global\let\oldcontentsline\contentsline
\gdef\contentsline#1#2#3#4{\oldcontentsline{#1}{#2}{#3}}
\global\let\oldnewlabel\newlabel
\gdef\newlabel#1#2{\newlabelxx{#1}#2}
\gdef\newlabelxx#1#2#3#4#5#6{\oldnewlabel{#1}{{#2}{#3}}}
\AtEndDocument{\ifx\hyper@anchor\@undefined
\let\contentsline\oldcontentsline
\let\newlabel\oldnewlabel
\fi}
\fi}
\global\let\hyper@last\relax 
\gdef\HyperFirstAtBeginDocument#1{#1}
\providecommand\HyField@AuxAddToFields[1]{}
\providecommand\HyField@AuxAddToCoFields[2]{}
\catcode `"\active 
\catcode `:\active 
\catcode `;\active 
\catcode `!\active 
\catcode `?\active 
\catcode `<\active 
\catcode `>\active 
\@nameuse{es@quoting}
\citation{abnt-url-package=url}
\citation{abnt-etal-list=0}
\citation{abnt-etal-cite=3}
\@writefile{toc}{\changetocdepth  {4}}
\providecommand \oddpage@label [2]{}
\babel@aux{english}{}
\babel@aux{english}{}
\BKM@entry{id=1,dest={6368617074657262312E30},srcline={241}}{5469746C652070616765}
\BKM@entry{id=2,dest={6368617074657262322E30},srcline={357}}{417070726F76616C}
\BKM@entry{id=3,dest={6368617074657262332E30},srcline={394}}{44656469636174696F6E}
\BKM@entry{id=4,dest={6368617074657262352E30},srcline={405}}{41636B6E6F776C656467656D656E7473}
\@writefile{toc}{\setlength  {\cftchapterindent }{\cftlastnumwidth } \setlength  {\cftchapternumwidth }{2em}}
\BKM@entry{id=5,dest={6368617074657262362E30},srcline={456}}{4162737472616374}
\citation{lu2014scalable}
\citation{lu2014scalable}
\citation{lu2014scalable}
\citation{lu2014scalable}
\citation{lu2014scalable}
\citation{lu2014scalable}
\citation{lu2014scalable}
\newlabel{mod0}{{\M@TitleReference {}{}}{7}{}{section*.6}{}}
\@writefile{brf}{\backcite{lu2014scalable}{{7}{(document)}{Doc-Start}}}
\@writefile{brf}{\backcite{lu2014scalable}{{7}{(document)}{Doc-Start}}}
\@writefile{brf}{\backcite{lu2014scalable}{{7}{(document)}{Doc-Start}}}
\@writefile{brf}{\backcite{lu2014scalable}{{7}{(document)}{Doc-Start}}}
\@writefile{brf}{\backcite{lu2014scalable}{{7}{(document)}{Doc-Start}}}
\@writefile{brf}{\backcite{lu2014scalable}{{7}{(document)}{Doc-Start}}}
\@writefile{brf}{\backcite{lu2014scalable}{{7}{(document)}{Doc-Start}}}
\BKM@entry{id=6,dest={6368617074657262372E30},srcline={473}}{526573756D6F}
\citation{lu2014scalable}
\citation{lu2014scalable}
\citation{lu2014scalable}
\citation{lu2014scalable}
\citation{lu2014scalable}
\citation{lu2014scalable}
\citation{lu2014scalable}
\@writefile{brf}{\backcite{lu2014scalable}{{9}{(document)}{Doc-Start}}}
\@writefile{brf}{\backcite{lu2014scalable}{{9}{(document)}{Doc-Start}}}
\@writefile{brf}{\backcite{lu2014scalable}{{9}{(document)}{Doc-Start}}}
\@writefile{brf}{\backcite{lu2014scalable}{{9}{(document)}{Doc-Start}}}
\@writefile{brf}{\backcite{lu2014scalable}{{9}{(document)}{Doc-Start}}}
\@writefile{brf}{\backcite{lu2014scalable}{{9}{(document)}{Doc-Start}}}
\@writefile{brf}{\backcite{lu2014scalable}{{10}{(document)}{Doc-Start}}}
\BKM@entry{id=7,dest={6C6F662E30},srcline={503}}{4C697374206F662046696775726573}
\@writefile{toc}{\setlength  {\cftchapterindent }{\cftlastnumwidth } \setlength  {\cftchapternumwidth }{2em}}
\BKM@entry{id=8,dest={6C6F742E30},srcline={510}}{4C697374206F66205461626C6573}
\@writefile{toc}{\setlength  {\cftchapterindent }{\cftlastnumwidth } \setlength  {\cftchapternumwidth }{2em}}
\BKM@entry{id=9,dest={6C6F742E30},srcline={528}}{4C697374206F662053796D626F6C73}
\@writefile{toc}{\setlength  {\cftchapterindent }{\cftlastnumwidth } \setlength  {\cftchapternumwidth }{2em}}
\BKM@entry{id=10,dest={746F632E30},srcline={583}}{436F6E74656E7473}
\@writefile{toc}{\setlength  {\cftchapterindent }{\cftlastnumwidth } \setlength  {\cftchapternumwidth }{2em}}
\BKM@entry{id=11,dest={636861707465722E31},srcline={598}}{496E74726F64756374696F6E}
\BKM@entry{id=12,dest={73656374696F6E2E312E31},srcline={602}}{436F6E74657874}
\citation{signori2016digital}
\citation{newman2016reuters}
\citation{schlesinger2015organizational}
\citation{doyle2015multi}
\citation{newman2016reuters}
\citation{tandoc2014journalism}
\citation{schlesinger2015organizational}
\@writefile{toc}{\setlength  {\cftchapterindent }{0em} \setlength  {\cftchapternumwidth }{\cftlastnumwidth }}
\@writefile{toc}{\contentsline {chapter}{\chapternumberline {1}\MakeTextUppercase  {Introduction}}{18}{chapter.1}}
\@writefile{toc}{\contentsline {section}{\numberline {1.1}Context}{18}{section.1.1}}
\@writefile{brf}{\backcite{signori2016digital}{{18}{1.1}{section.1.1}}}
\@writefile{brf}{\backcite{newman2016reuters}{{18}{1.1}{section.1.1}}}
\@writefile{brf}{\backcite{schlesinger2015organizational}{{18}{1.1}{section.1.1}}}
\@writefile{brf}{\backcite{doyle2015multi}{{18}{1.1}{section.1.1}}}
\@writefile{brf}{\backcite{newman2016reuters}{{18}{1.1}{section.1.1}}}
\@writefile{brf}{\backcite{tandoc2014journalism}{{18}{1.1}{section.1.1}}}
\citation{cherubini2016editorial}
\citation{song2016multi}
\BKM@entry{id=13,dest={73656374696F6E2E312E32},srcline={625}}{4F626A65637469766573}
\BKM@entry{id=14,dest={73756273656374696F6E2E312E322E31},srcline={627}}{47656E6572616C204F626A656374697665}
\newlabel{mod1}{{\M@TitleReference {1.1}{Context}}{19}{Context}{section.1.1}{}}
\@writefile{brf}{\backcite{schlesinger2015organizational}{{19}{1.1}{section.1.1}}}
\@writefile{brf}{\backcite{cherubini2016editorial}{{19}{1.1}{section.1.1}}}
\@writefile{brf}{\backcite{song2016multi}{{19}{1.1}{section.1.1}}}
\BKM@entry{id=15,dest={73756273656374696F6E2E312E322E32},srcline={630}}{5370656369666963204F626A65637469766573}
\BKM@entry{id=16,dest={73656374696F6E2E312E33},srcline={640}}{53747564792072656C6576616E6365}
\@writefile{toc}{\contentsline {section}{\numberline {1.2}Objectives}{20}{section.1.2}}
\@writefile{toc}{\contentsline {subsection}{\numberline {1.2.1}General Objective}{20}{subsection.1.2.1}}
\newlabel{mod2}{{\M@TitleReference {1.2.1}{General Objective}}{20}{General Objective}{subsection.1.2.1}{}}
\@writefile{toc}{\contentsline {subsection}{\numberline {1.2.2}Specific Objectives}{20}{subsection.1.2.2}}
\newlabel{mod3}{{\M@TitleReference {1.2.2}{Specific Objectives}}{20}{Specific Objectives}{subsection.1.2.2}{}}
\@writefile{toc}{\contentsline {section}{\numberline {1.3}Study relevance}{20}{section.1.3}}
\newlabel{mod4}{{\M@TitleReference {1.3}{Study relevance}}{20}{Study relevance}{section.1.3}{}}
\BKM@entry{id=17,dest={636861707465722E32},srcline={645}}{477275706F205242532C205A65726F20486F726120616E6420746865204D6564696120427573696E657373}
\BKM@entry{id=18,dest={73656374696F6E2E322E31},srcline={647}}{4D6564696120496E647573747279}
\citation{newman2016reuters}
\citation{newman2016reuters}
\BKM@entry{id=19,dest={73656374696F6E2E322E32},srcline={653}}{477275706F20524253}
\citation{amanha500maioressul}
\citation{gruporbs2017site}
\citation{g12016rbsvendesc}
\BKM@entry{id=20,dest={73656374696F6E2E322E33},srcline={659}}{5A65726F20486F7261}
\citation{zeroHoraIVC}
\citation{faccin2009zero}
\@writefile{toc}{\setlength  {\cftchapterindent }{0em} \setlength  {\cftchapternumwidth }{\cftlastnumwidth }}
\@writefile{toc}{\contentsline {chapter}{\chapternumberline {2}\MakeTextUppercase  {Grupo RBS, Zero Hora and the Media Business}}{21}{chapter.2}}
\@writefile{toc}{\contentsline {section}{\numberline {2.1}Media Industry}{21}{section.2.1}}
\@writefile{brf}{\backcite{newman2016reuters}{{21}{2.1}{section.2.1}}}
\@writefile{brf}{\backcite{newman2016reuters}{{21}{2.1}{section.2.1}}}
\@writefile{toc}{\contentsline {section}{\numberline {2.2}Grupo RBS}{21}{section.2.2}}
\@writefile{brf}{\backcite{amanha500maioressul}{{21}{2.2}{section.2.2}}}
\@writefile{brf}{\backcite{gruporbs2017site}{{21}{2.2}{section.2.2}}}
\newlabel{mod5}{{\M@TitleReference {2.2}{Grupo RBS}}{21}{Grupo RBS}{section.2.2}{}}
\@writefile{brf}{\backcite{g12016rbsvendesc}{{21}{2.2}{section.2.2}}}
\citation{coletiva2016pertojunto}
\citation{zh2015zhtablet}
\citation{zh2015zhdigital}
\citation{zh2016newsletter}
\BKM@entry{id=21,dest={73656374696F6E2E322E34},srcline={666}}{436F6E73756D657220556E6465727374616E64696E67206174205A65726F20486F7261}
\@writefile{toc}{\contentsline {section}{\numberline {2.3}Zero Hora}{22}{section.2.3}}
\newlabel{mod6}{{\M@TitleReference {2.3}{Zero Hora}}{22}{Zero Hora}{section.2.3}{}}
\@writefile{brf}{\backcite{zeroHoraIVC}{{22}{2.3}{section.2.3}}}
\@writefile{brf}{\backcite{faccin2009zero}{{22}{2.3}{section.2.3}}}
\newlabel{mod7}{{\M@TitleReference {2.3}{Zero Hora}}{22}{Zero Hora}{section.2.3}{}}
\@writefile{brf}{\backcite{coletiva2016pertojunto}{{22}{2.3}{section.2.3}}}
\@writefile{brf}{\backcite{zh2015zhtablet}{{22}{2.3}{section.2.3}}}
\@writefile{brf}{\backcite{zh2015zhdigital}{{22}{2.3}{section.2.3}}}
\@writefile{brf}{\backcite{zh2016newsletter}{{22}{2.3}{section.2.3}}}
\@writefile{toc}{\contentsline {section}{\numberline {2.4}Consumer Understanding at Zero Hora}{22}{section.2.4}}
\newlabel{mod8}{{\M@TitleReference {2.4}{Consumer Understanding at Zero Hora}}{22}{Consumer Understanding at Zero Hora}{section.2.4}{}}
\BKM@entry{id=22,dest={636861707465722E33},srcline={680}}{52656C6174656420576F726B}
\BKM@entry{id=23,dest={73656374696F6E2E332E31},srcline={683}}{4E6577732044617461204D696E696E67}
\citation{aggarwal2012mining}
\citation{newman2016reuters}
\citation{cherubini2016editorial}
\citation{schlesinger2015organizational}
\citation{grandesDadosgloboBigData}
\@writefile{toc}{\setlength  {\cftchapterindent }{0em} \setlength  {\cftchapternumwidth }{\cftlastnumwidth }}
\@writefile{toc}{\contentsline {chapter}{\chapternumberline {3}\MakeTextUppercase  {Related Work}}{24}{chapter.3}}
\@writefile{toc}{\contentsline {section}{\numberline {3.1}News Data Mining}{24}{section.3.1}}
\@writefile{brf}{\backcite{aggarwal2012mining}{{24}{3.1}{section.3.1}}}
\@writefile{brf}{\backcite{newman2016reuters}{{24}{3.1}{section.3.1}}}
\@writefile{brf}{\backcite{cherubini2016editorial}{{24}{3.1}{section.3.1}}}
\@writefile{brf}{\backcite{schlesinger2015organizational}{{24}{3.1}{section.3.1}}}
\@writefile{brf}{\backcite{grandesDadosgloboBigData}{{24}{3.1}{section.3.1}}}
\BKM@entry{id=24,dest={73656374696F6E2E332E32},srcline={693}}{4E657773205265636F6D6D656E646174696F6E}
\citation{li2014modeling}
\citation{shi2014collaborative}
\citation{ji2016regularized}
\citation{das2007google}
\citation{bai2017exploiting}
\citation{gu2016personalized}
\BKM@entry{id=25,dest={73756273656374696F6E2E332E322E31},srcline={698}}{436F6C6C61626F7261746976652046696C746572696E67}
\citation{shi2014collaborative}
\citation{dong2015ubs}
\citation{lin2014personalized}
\citation{lu2014scalable}
\citation{bouras2014improving}
\citation{das2007google}
\citation{das2007google}
\citation{shi2014collaborative}
\citation{das2007google}
\citation{das2007google}
\citation{das2007google}
\citation{ji2016regularized}
\citation{ji2016regularized}
\citation{koren2009matrix}
\citation{koren2009matrix}
\@writefile{toc}{\contentsline {section}{\numberline {3.2}News Recommendation}{25}{section.3.2}}
\@writefile{brf}{\backcite{li2014modeling}{{25}{3.2}{section.3.2}}}
\newlabel{mod9}{{\M@TitleReference {3.2}{News Recommendation}}{25}{News Recommendation}{section.3.2}{}}
\newlabel{mod10}{{\M@TitleReference {3.2}{News Recommendation}}{25}{News Recommendation}{section.3.2}{}}
\@writefile{brf}{\backcite{shi2014collaborative}{{25}{3.2}{section.3.2}}}
\@writefile{brf}{\backcite{ji2016regularized}{{25}{3.2}{section.3.2}}}
\@writefile{brf}{\backcite{das2007google}{{25}{3.2}{section.3.2}}}
\@writefile{brf}{\backcite{bai2017exploiting}{{25}{3.2}{section.3.2}}}
\@writefile{brf}{\backcite{gu2016personalized}{{25}{3.2}{section.3.2}}}
\@writefile{toc}{\contentsline {subsection}{\numberline {3.2.1}Collaborative Filtering}{25}{subsection.3.2.1}}
\newlabel{mod11}{{\M@TitleReference {3.2.1}{Collaborative Filtering}}{25}{Collaborative Filtering}{subsection.3.2.1}{}}
\@writefile{brf}{\backcite{shi2014collaborative}{{25}{3.2.1}{subsection.3.2.1}}}
\@writefile{brf}{\backcite{dong2015ubs}{{25}{3.2.1}{subsection.3.2.1}}}
\@writefile{brf}{\backcite{lin2014personalized}{{25}{3.2.1}{subsection.3.2.1}}}
\@writefile{brf}{\backcite{lu2014scalable,bouras2014improving,das2007google}{{25}{3.2.1}{subsection.3.2.1}}}
\@writefile{brf}{\backcite{lu2014scalable,bouras2014improving,das2007google}{{25}{3.2.1}{subsection.3.2.1}}}
\@writefile{brf}{\backcite{lu2014scalable,bouras2014improving,das2007google}{{25}{3.2.1}{subsection.3.2.1}}}
\@writefile{brf}{\backcite{das2007google}{{25}{3.2.1}{subsection.3.2.1}}}
\@writefile{brf}{\backcite{shi2014collaborative}{{25}{3.2.1}{subsection.3.2.1}}}
\@writefile{brf}{\backcite{das2007google}{{25}{3.2.1}{subsection.3.2.1}}}
\@writefile{brf}{\backcite{das2007google}{{25}{3.2.1}{subsection.3.2.1}}}
\@writefile{brf}{\backcite{das2007google}{{25}{3.2.1}{subsection.3.2.1}}}
\@writefile{brf}{\backcite{ji2016regularized}{{25}{3.2.1}{subsection.3.2.1}}}
\BKM@entry{id=26,dest={73756273656374696F6E2E332E322E32},srcline={707}}{436F6E74656E742D62617365642046696C746572696E67}
\citation{gu2016personalized}
\BKM@entry{id=27,dest={73756273656374696F6E2E332E322E33},srcline={710}}{48796272696420617070726F6163686573}
\citation{gu2016personalized}
\citation{lu2014scalable}
\citation{lu2014scalable}
\citation{bouras2014improving}
\citation{bouras2014improving}
\citation{li2014modeling}
\citation{li2014modeling}
\citation{jonnalagedda2016incorporating}
\citation{jonnalagedda2016incorporating}
\citation{bai2017exploiting}
\citation{bai2017exploiting}
\BKM@entry{id=28,dest={73756273656374696F6E2E332E322E34},srcline={715}}{4D61696E204368616C6C656E676573}
\citation{lin2014personalized}
\citation{kille2015stream}
\citation{zheng2013penetrate}
\citation{song2016multi}
\@writefile{brf}{\backcite{ji2016regularized}{{26}{3.2.1}{subsection.3.2.1}}}
\@writefile{brf}{\backcite{koren2009matrix}{{26}{3.2.1}{subsection.3.2.1}}}
\@writefile{brf}{\backcite{koren2009matrix}{{26}{3.2.1}{subsection.3.2.1}}}
\@writefile{toc}{\contentsline {subsection}{\numberline {3.2.2}Content-based Filtering}{26}{subsection.3.2.2}}
\newlabel{mod12}{{\M@TitleReference {3.2.2}{Content-based Filtering}}{26}{Content-based Filtering}{subsection.3.2.2}{}}
\@writefile{brf}{\backcite{gu2016personalized}{{26}{3.2.2}{subsection.3.2.2}}}
\@writefile{toc}{\contentsline {subsection}{\numberline {3.2.3}Hybrid approaches}{26}{subsection.3.2.3}}
\@writefile{brf}{\backcite{gu2016personalized}{{26}{3.2.3}{subsection.3.2.3}}}
\@writefile{brf}{\backcite{lu2014scalable}{{26}{3.2.3}{subsection.3.2.3}}}
\@writefile{brf}{\backcite{lu2014scalable}{{26}{3.2.3}{subsection.3.2.3}}}
\@writefile{brf}{\backcite{bouras2014improving}{{26}{3.2.3}{subsection.3.2.3}}}
\@writefile{brf}{\backcite{bouras2014improving}{{26}{3.2.3}{subsection.3.2.3}}}
\@writefile{brf}{\backcite{li2014modeling}{{26}{3.2.3}{subsection.3.2.3}}}
\@writefile{brf}{\backcite{li2014modeling}{{26}{3.2.3}{subsection.3.2.3}}}
\@writefile{brf}{\backcite{jonnalagedda2016incorporating}{{26}{3.2.3}{subsection.3.2.3}}}
\@writefile{brf}{\backcite{jonnalagedda2016incorporating}{{26}{3.2.3}{subsection.3.2.3}}}
\@writefile{brf}{\backcite{bai2017exploiting}{{26}{3.2.3}{subsection.3.2.3}}}
\@writefile{brf}{\backcite{bai2017exploiting}{{26}{3.2.3}{subsection.3.2.3}}}
\@writefile{toc}{\contentsline {subsection}{\numberline {3.2.4}Main Challenges}{26}{subsection.3.2.4}}
\@writefile{brf}{\backcite{lin2014personalized, kille2015stream}{{26}{3.2.4}{subsection.3.2.4}}}
\@writefile{brf}{\backcite{lin2014personalized, kille2015stream}{{26}{3.2.4}{subsection.3.2.4}}}
\citation{li2014modeling}
\citation{li2014modeling}
\citation{lu2014scalable}
\citation{zheng2013penetrate}
\citation{jonnalagedda2016incorporating}
\citation{lin2014personalized}
\BKM@entry{id=29,dest={73656374696F6E2E332E33},srcline={726}}{436C757374657220416E616C79736973}
\citation{everitt2011cluster}
\citation{hair2013multivariate}
\citation{everitt2011cluster}
\citation{hair2013multivariate}
\citation{hair2013multivariate}
\@writefile{brf}{\backcite{zheng2013penetrate}{{27}{3.2.4}{subsection.3.2.4}}}
\@writefile{brf}{\backcite{song2016multi}{{27}{3.2.4}{subsection.3.2.4}}}
\@writefile{brf}{\backcite{li2014modeling}{{27}{3.2.4}{subsection.3.2.4}}}
\@writefile{brf}{\backcite{li2014modeling}{{27}{3.2.4}{subsection.3.2.4}}}
\@writefile{brf}{\backcite{lu2014scalable}{{27}{3.2.4}{subsection.3.2.4}}}
\@writefile{brf}{\backcite{zheng2013penetrate, jonnalagedda2016incorporating, lin2014personalized}{{27}{3.2.4}{subsection.3.2.4}}}
\@writefile{brf}{\backcite{zheng2013penetrate, jonnalagedda2016incorporating, lin2014personalized}{{27}{3.2.4}{subsection.3.2.4}}}
\@writefile{brf}{\backcite{zheng2013penetrate, jonnalagedda2016incorporating, lin2014personalized}{{27}{3.2.4}{subsection.3.2.4}}}
\@writefile{toc}{\contentsline {section}{\numberline {3.3}Cluster Analysis}{27}{section.3.3}}
\@writefile{brf}{\backcite{hair2013multivariate}{{27}{3.3}{section.3.3}}}
\newlabel{mod13}{{\M@TitleReference {1}{Cluster Analysis}}{27}{Cluster Analysis}{section.3.3}{}}
\@writefile{brf}{\backcite{everitt2011cluster}{{27}{1}{section.3.3}}}
\@writefile{brf}{\backcite{hair2013multivariate}{{27}{1}{section.3.3}}}
\@writefile{brf}{\backcite{everitt2011cluster, hair2013multivariate}{{27}{1}{section.3.3}}}
\@writefile{brf}{\backcite{everitt2011cluster, hair2013multivariate}{{27}{1}{section.3.3}}}
\citation{hair2013multivariate}
\citation{everitt2011cluster}
\BKM@entry{id=30,dest={73756273656374696F6E2E332E332E31},srcline={750}}{53696D696C6172697479204D656173757265}
\citation{everitt2011cluster}
\citation{hair2013multivariate}
\@writefile{brf}{\backcite{hair2013multivariate}{{28}{3.3}{section.3.3}}}
\@writefile{brf}{\backcite{everitt2011cluster}{{28}{3.3}{Item.6}}}
\@writefile{toc}{\contentsline {subsection}{\numberline {3.3.1}Similarity Measure}{28}{subsection.3.3.1}}
\@writefile{brf}{\backcite{everitt2011cluster}{{28}{3.3.1}{subsection.3.3.1}}}
\@writefile{brf}{\backcite{hair2013multivariate}{{29}{3.3.1}{subsection.3.3.1}}}
\citation{everitt2011cluster}
\BKM@entry{id=31,dest={73756273656374696F6E2E332E332E32},srcline={777}}{4E756D626572206F6620436C757374657273}
\@writefile{brf}{\backcite{everitt2011cluster}{{30}{3.3.1}{subsection.3.3.1}}}
\@writefile{toc}{\contentsline {subsection}{\numberline {3.3.2}Number of Clusters}{30}{subsection.3.3.2}}
\citation{baxter1994exploratory}
\citation{baxter1994exploratory}
\citation{rousseeuw1990finding}
\citation{rousseeuw1990finding}
\BKM@entry{id=32,dest={73756273656374696F6E2E332E332E33},srcline={788}}{436C7573746572732056616C69646174696F6E}
\@writefile{brf}{\backcite{baxter1994exploratory}{{31}{3.3.2}{subsection.3.3.2}}}
\@writefile{brf}{\backcite{baxter1994exploratory}{{31}{3.3.2}{subsection.3.3.2}}}
\@writefile{brf}{\backcite{rousseeuw1990finding}{{31}{3.3.2}{subsection.3.3.2}}}
\@writefile{brf}{\backcite{rousseeuw1990finding}{{31}{3.3.2}{subsection.3.3.2}}}
\@writefile{toc}{\contentsline {subsection}{\numberline {3.3.3}Clusters Validation}{32}{subsection.3.3.3}}
\BKM@entry{id=33,dest={636861707465722E34},srcline={798}}{4D6574686F64}
\citation{lu2014scalable}
\citation{lu2014scalable}
\citation{lu2014scalable}
\citation{lu2014scalable}
\citation{everitt2011cluster}
\citation{milligan1996clustering}
\citation{everitt2011cluster}
\citation{milligan1996clustering}
\citation{hair2013multivariate}
\citation{hair2013multivariate}
\citation{milligan1996clustering}
\BKM@entry{id=34,dest={73656374696F6E2E342E31},srcline={817}}{4F626A656374732053656C656374696F6E}
\@writefile{toc}{\setlength  {\cftchapterindent }{0em} \setlength  {\cftchapternumwidth }{\cftlastnumwidth }}
\@writefile{toc}{\contentsline {chapter}{\chapternumberline {4}\MakeTextUppercase  {Method}}{33}{chapter.4}}
\newlabel{mod14}{{\M@TitleReference {4}{\MakeTextUppercase  {Method}}}{33}{Method}{chapter.4}{}}
\@writefile{brf}{\backcite{lu2014scalable}{{33}{4}{chapter.4}}}
\@writefile{brf}{\backcite{lu2014scalable}{{33}{4}{chapter.4}}}
\@writefile{brf}{\backcite{lu2014scalable}{{33}{4}{chapter.4}}}
\@writefile{brf}{\backcite{lu2014scalable}{{33}{4}{chapter.4}}}
\@writefile{brf}{\backcite{everitt2011cluster}{{33}{4}{chapter.4}}}
\@writefile{brf}{\backcite{milligan1996clustering}{{33}{4}{chapter.4}}}
\@writefile{brf}{\backcite{everitt2011cluster, milligan1996clustering}{{33}{4}{chapter.4}}}
\@writefile{brf}{\backcite{everitt2011cluster, milligan1996clustering}{{33}{4}{chapter.4}}}
\@writefile{brf}{\backcite{hair2013multivariate}{{33}{4}{chapter.4}}}
\@writefile{brf}{\backcite{hair2013multivariate}{{33}{4}{chapter.4}}}
\@writefile{brf}{\backcite{milligan1996clustering}{{33}{4}{chapter.4}}}
\BKM@entry{id=35,dest={73656374696F6E2E342E32},srcline={838}}{5661726961626C652053656C656374696F6E}
\citation{lu2014scalable}
\citation{lu2014scalable}
\BKM@entry{id=36,dest={73756273656374696F6E2E342E322E31},srcline={841}}{557365722044617461205661726961626C6573}
\citation{lu2014scalable}
\citation{lu2014scalable}
\@writefile{toc}{\contentsline {section}{\numberline {4.1}Objects Selection}{34}{section.4.1}}
\newlabel{mod15}{{\M@TitleReference {4.1}{Objects Selection}}{34}{Objects Selection}{section.4.1}{}}
\@writefile{lot}{\contentsline {table}{\numberline {1}{\ignorespaces Segmentation of Digital Users at Ga\IeC {\'u}cha ZH\relax }}{34}{table.caption.9}}
\providecommand*\caption@xref[2]{\@setref\relax\@undefined{#1}}
\newlabel{user-segmentation-table}{{\M@TitleReference {1}{Segmentation of Digital Users at Ga\IeC {\'u}cha ZH\relax }}{34}{Segmentation of Digital Users at Gaúcha ZH\relax }{table.caption.9}{}}
\@writefile{toc}{\contentsline {section}{\numberline {4.2}Variable Selection}{34}{section.4.2}}
\newlabel{mod16}{{\M@TitleReference {4.2}{Variable Selection}}{34}{Variable Selection}{section.4.2}{}}
\@writefile{brf}{\backcite{lu2014scalable}{{34}{4.2}{section.4.2}}}
\@writefile{brf}{\backcite{lu2014scalable}{{34}{4.2}{section.4.2}}}
\@writefile{toc}{\contentsline {subsection}{\numberline {4.2.1}User Data Variables}{34}{subsection.4.2.1}}
\@writefile{lot}{\contentsline {table}{\numberline {2}{\ignorespaces Sample of user's data\relax }}{34}{table.caption.10}}
\newlabel{user-data-sample}{{\M@TitleReference {2}{Sample of user's data\relax }}{34}{Sample of user's data\relax }{table.caption.10}{}}
\BKM@entry{id=37,dest={73756273656374696F6E2E342E322E32},srcline={878}}{4265686176696F722044617461205661726961626C6573}
\citation{bouras2014improving}
\citation{mishra2014alternative}
\citation{das2007google}
\citation{lu2014scalable}
\citation{bai2017exploiting}
\citation{li2014modeling}
\citation{lu2014scalable}
\citation{lu2014scalable}
\BKM@entry{id=38,dest={73756273656374696F6E2E342E322E33},srcline={914}}{436F6E74656E742044617461205661726961626C6573}
\citation{lu2014scalable}
\citation{li2014modeling}
\citation{zhao2016personalized}
\citation{zheng2013penetrate}
\citation{lin2014personalized}
\citation{bai2017exploiting}
\citation{gu2016personalized}
\citation{bouras2014improving}
\@writefile{brf}{\backcite{lu2014scalable}{{35}{4.2.1}{table.caption.10}}}
\@writefile{brf}{\backcite{lu2014scalable}{{35}{4.2.1}{table.caption.10}}}
\@writefile{toc}{\contentsline {subsection}{\numberline {4.2.2}Behavior Data Variables}{35}{subsection.4.2.2}}
\@writefile{brf}{\backcite{bouras2014improving, mishra2014alternative}{{35}{4.2.2}{subsection.4.2.2}}}
\@writefile{brf}{\backcite{bouras2014improving, mishra2014alternative}{{35}{4.2.2}{subsection.4.2.2}}}
\@writefile{brf}{\backcite{das2007google,lu2014scalable,bai2017exploiting,li2014modeling}{{35}{4.2.2}{subsection.4.2.2}}}
\@writefile{brf}{\backcite{das2007google,lu2014scalable,bai2017exploiting,li2014modeling}{{35}{4.2.2}{subsection.4.2.2}}}
\@writefile{brf}{\backcite{das2007google,lu2014scalable,bai2017exploiting,li2014modeling}{{35}{4.2.2}{subsection.4.2.2}}}
\@writefile{brf}{\backcite{das2007google,lu2014scalable,bai2017exploiting,li2014modeling}{{35}{4.2.2}{subsection.4.2.2}}}
\@writefile{lot}{\contentsline {table}{\numberline {3}{\ignorespaces Sample of user's behavioral data\relax }}{35}{table.caption.11}}
\newlabel{user-behaviour-data-sample}{{\M@TitleReference {3}{Sample of user's behavioral data\relax }}{35}{Sample of user's behavioral data\relax }{table.caption.11}{}}
\@writefile{brf}{\backcite{lu2014scalable}{{35}{4.2.2}{table.caption.11}}}
\@writefile{brf}{\backcite{lu2014scalable}{{35}{4.2.2}{table.caption.11}}}
\@writefile{toc}{\contentsline {subsection}{\numberline {4.2.3}Content Data Variables}{35}{subsection.4.2.3}}
\@writefile{brf}{\backcite{lu2014scalable,li2014modeling,zhao2016personalized}{{35}{4.2.3}{subsection.4.2.3}}}
\@writefile{brf}{\backcite{lu2014scalable,li2014modeling,zhao2016personalized}{{35}{4.2.3}{subsection.4.2.3}}}
\@writefile{brf}{\backcite{lu2014scalable,li2014modeling,zhao2016personalized}{{35}{4.2.3}{subsection.4.2.3}}}
\@writefile{brf}{\backcite{zheng2013penetrate}{{35}{4.2.3}{subsection.4.2.3}}}
\citation{lu2014scalable}
\citation{lu2014scalable}
\BKM@entry{id=39,dest={73656374696F6E2E342E33},srcline={957}}{50726F78696D697479204D656173757265}
\citation{bouras2014improving}
\citation{bouras2014improving}
\citation{li2014modeling}
\citation{li2014modeling}
\citation{lu2014scalable}
\citation{lu2014scalable}
\@writefile{brf}{\backcite{lin2014personalized, bai2017exploiting, gu2016personalized, bouras2014improving}{{36}{4.2.3}{subsection.4.2.3}}}
\@writefile{brf}{\backcite{lin2014personalized, bai2017exploiting, gu2016personalized, bouras2014improving}{{36}{4.2.3}{subsection.4.2.3}}}
\@writefile{brf}{\backcite{lin2014personalized, bai2017exploiting, gu2016personalized, bouras2014improving}{{36}{4.2.3}{subsection.4.2.3}}}
\@writefile{brf}{\backcite{lin2014personalized, bai2017exploiting, gu2016personalized, bouras2014improving}{{36}{4.2.3}{subsection.4.2.3}}}
\@writefile{brf}{\backcite{lu2014scalable}{{36}{4.2.3}{table.caption.12}}}
\@writefile{brf}{\backcite{lu2014scalable}{{36}{4.2.3}{table.caption.12}}}
\@writefile{toc}{\contentsline {section}{\numberline {4.3}Proximity Measure}{36}{section.4.3}}
\@writefile{brf}{\backcite{bouras2014improving}{{36}{4.3}{section.4.3}}}
\@writefile{brf}{\backcite{bouras2014improving}{{36}{4.3}{section.4.3}}}
\@writefile{brf}{\backcite{li2014modeling}{{36}{4.3}{section.4.3}}}
\@writefile{brf}{\backcite{li2014modeling}{{36}{4.3}{section.4.3}}}
\@writefile{brf}{\backcite{lu2014scalable}{{36}{4.3}{section.4.3}}}
\citation{lu2014scalable}
\citation{lu2014scalable}
\BKM@entry{id=40,dest={73756273656374696F6E2E342E332E31},srcline={962}}{4265686176696F722044697374616E6365}
\citation{lu2014scalable}
\@writefile{lot}{\contentsline {table}{\numberline {4}{\ignorespaces Sample of content's data\relax }}{37}{table.caption.12}}
\newlabel{content-data-sample}{{\M@TitleReference {4}{Sample of content's data\relax }}{37}{Sample of content's data\relax }{table.caption.12}{}}
\@writefile{brf}{\backcite{lu2014scalable}{{37}{4.3}{section.4.3}}}
\@writefile{brf}{\backcite{lu2014scalable}{{37}{4.3}{section.4.3}}}
\@writefile{brf}{\backcite{lu2014scalable}{{37}{4.3}{section.4.3}}}
\@writefile{toc}{\contentsline {subsection}{\numberline {4.3.1}Behavior Distance}{37}{subsection.4.3.1}}
\@writefile{brf}{\backcite{lu2014scalable}{{37}{4.3.1}{subsection.4.3.1}}}
\@writefile{lof}{\contentsline {figure}{\numberline {1}{\ignorespaces Popularity factor versus Total Access Count}}{38}{figure.caption.13}}
\newlabel{fig:popularity-index-plot}{{\M@TitleReference {1}{Popularity factor versus Total Access Count}}{38}{Popularity factor versus Total Access Count}{figure.caption.13}{}}
\newlabel{eq:factor}{{4.3}{38}{Behavior Distance}{equation.4.3.3}{}}
\BKM@entry{id=41,dest={73756273656374696F6E2E342E332E32},srcline={1035}}{436F6E74656E742044697374616E6365}
\@writefile{lof}{\contentsline {figure}{\numberline {2}{\ignorespaces Adjustment factor value over 100 days with $\alpha =1$, $\alpha =0.25$ and $\alpha =0.1$}}{39}{figure.caption.14}}
\newlabel{fig:attenuation-curves-plot}{{\M@TitleReference {2}{Adjustment factor value over 100 days with $\alpha =1$, $\alpha =0.25$ and $\alpha =0.1$}}{39}{Adjustment factor value over 100 days with $\alpha =1$, $\alpha =0.25$ and $\alpha =0.1$}{figure.caption.14}{}}
\@writefile{toc}{\contentsline {subsection}{\numberline {4.3.2}Content Distance}{39}{subsection.4.3.2}}
\newlabel{errata:1}{{\M@TitleReference {4.3.2}{Content Distance}}{39}{Content Distance}{equation.4.3.6}{}}
\citation{lu2014scalable}
\BKM@entry{id=42,dest={73756273656374696F6E2E342E332E33},srcline={1057}}{4D697865642044697374616E6365}
\citation{lu2014scalable}
\citation{lu2014scalable}
\BKM@entry{id=43,dest={73656374696F6E2E342E34},srcline={1064}}{436C7573746572204D6574686F6420616E64204576616C756174696F6E}
\citation{li2014modeling}
\citation{li2014modeling}
\citation{everitt2011cluster}
\BKM@entry{id=44,dest={73756273656374696F6E2E342E342E31},srcline={1069}}{4F7074696D697A6174696F6E204D6574686F64732053656C656374696F6E}
\citation{lu2014scalable}
\citation{velmurugan2010computational}
\citation{velmurugan2012efficiency}
\citation{arora2016analysis}
\citation{lu2014scalable}
\citation{arora2016analysis}
\citation{arora2016analysis}
\@writefile{brf}{\backcite{lu2014scalable}{{40}{4.3.2}{equation.4.3.6}}}
\@writefile{toc}{\contentsline {subsection}{\numberline {4.3.3}Mixed Distance}{40}{subsection.4.3.3}}
\newlabel{mod17}{{\M@TitleReference {4.3.3}{Mixed Distance}}{40}{Mixed Distance}{subsection.4.3.3}{}}
\@writefile{brf}{\backcite{lu2014scalable}{{40}{4.3.3}{subsection.4.3.3}}}
\@writefile{brf}{\backcite{lu2014scalable}{{40}{4.3.3}{subsection.4.3.3}}}
\@writefile{toc}{\contentsline {section}{\numberline {4.4}Cluster Method and Evaluation}{40}{section.4.4}}
\@writefile{brf}{\backcite{li2014modeling}{{40}{4.4}{section.4.4}}}
\@writefile{brf}{\backcite{li2014modeling}{{40}{4.4}{section.4.4}}}
\@writefile{brf}{\backcite{everitt2011cluster}{{40}{4.4}{section.4.4}}}
\@writefile{toc}{\contentsline {subsection}{\numberline {4.4.1}Optimization Methods Selection}{40}{subsection.4.4.1}}
\@writefile{brf}{\backcite{lu2014scalable}{{40}{4.4.1}{subsection.4.4.1}}}
\citation{velmurugan2010computational}
\citation{arora2016analysis}
\citation{velmurugan2010computational}
\citation{arora2016analysis}
\citation{maechler2014package}
\BKM@entry{id=45,dest={73756273656374696F6E2E342E342E32},srcline={1074}}{48696572617263686963616C204D6574686F64732053656C656374696F6E}
\citation{mullner2013fastcluster}
\citation{everitt2011cluster}
\citation{murtagh2014ward}
\citation{everitt2011cluster}
\@writefile{brf}{\backcite{velmurugan2010computational, velmurugan2012efficiency, arora2016analysis, lu2014scalable}{{41}{4.4.1}{subsection.4.4.1}}}
\@writefile{brf}{\backcite{velmurugan2010computational, velmurugan2012efficiency, arora2016analysis, lu2014scalable}{{41}{4.4.1}{subsection.4.4.1}}}
\@writefile{brf}{\backcite{velmurugan2010computational, velmurugan2012efficiency, arora2016analysis, lu2014scalable}{{41}{4.4.1}{subsection.4.4.1}}}
\@writefile{brf}{\backcite{velmurugan2010computational, velmurugan2012efficiency, arora2016analysis, lu2014scalable}{{41}{4.4.1}{subsection.4.4.1}}}
\@writefile{brf}{\backcite{arora2016analysis}{{41}{4.4.1}{subsection.4.4.1}}}
\@writefile{brf}{\backcite{arora2016analysis}{{41}{4.4.1}{subsection.4.4.1}}}
\@writefile{brf}{\backcite{velmurugan2010computational,arora2016analysis}{{41}{4.4.1}{subsection.4.4.1}}}
\@writefile{brf}{\backcite{velmurugan2010computational,arora2016analysis}{{41}{4.4.1}{subsection.4.4.1}}}
\@writefile{brf}{\backcite{velmurugan2010computational,arora2016analysis, maechler2014package}{{41}{4.4.1}{subsection.4.4.1}}}
\@writefile{brf}{\backcite{velmurugan2010computational,arora2016analysis, maechler2014package}{{41}{4.4.1}{subsection.4.4.1}}}
\@writefile{brf}{\backcite{velmurugan2010computational,arora2016analysis, maechler2014package}{{41}{4.4.1}{subsection.4.4.1}}}
\@writefile{toc}{\contentsline {subsection}{\numberline {4.4.2}Hierarchical Methods Selection}{41}{subsection.4.4.2}}
\@writefile{brf}{\backcite{mullner2013fastcluster, everitt2011cluster}{{41}{4.4.2}{subsection.4.4.2}}}
\@writefile{brf}{\backcite{mullner2013fastcluster, everitt2011cluster}{{41}{4.4.2}{subsection.4.4.2}}}
\@writefile{brf}{\backcite{murtagh2014ward}{{41}{4.4.2}{subsection.4.4.2}}}
\@writefile{brf}{\backcite{everitt2011cluster}{{41}{4.4.2}{subsection.4.4.2}}}
\BKM@entry{id=46,dest={73756273656374696F6E2E342E342E33},srcline={1089}}{4E756D626572206F6620436C757374657273}
\BKM@entry{id=47,dest={73756273656374696F6E2E342E342E34},srcline={1092}}{436C757374657220456666656374204576616C756174696F6E}
\citation{lu2014scalable}
\citation{lu2014scalable}
\citation{bouras2014improving}
\citation{bouras2014improving}
\citation{li2014modeling}
\citation{li2014modeling}
\BKM@entry{id=48,dest={73656374696F6E2E342E35},srcline={1229}}{5265706C69636174696F6E20616E642054657374696E67}
\citation{li2014modeling}
\citation{das2007google}
\citation{mishra2014alternative}
\citation{ji2016regularized}
\citation{lu2014scalable}
\citation{bai2017exploiting}
\citation{jonnalagedda2016incorporating}
\citation{bouras2014improving}
\@writefile{toc}{\contentsline {subsection}{\numberline {4.4.3}Number of Clusters}{42}{subsection.4.4.3}}
\@writefile{toc}{\contentsline {subsection}{\numberline {4.4.4}Cluster Effect Evaluation}{42}{subsection.4.4.4}}
\@writefile{brf}{\backcite{lu2014scalable}{{42}{4.4.4}{subsection.4.4.4}}}
\@writefile{brf}{\backcite{lu2014scalable}{{42}{4.4.4}{subsection.4.4.4}}}
\@writefile{brf}{\backcite{bouras2014improving}{{42}{4.4.4}{subsection.4.4.4}}}
\@writefile{brf}{\backcite{bouras2014improving}{{42}{4.4.4}{subsection.4.4.4}}}
\@writefile{brf}{\backcite{li2014modeling}{{42}{4.4.4}{subsection.4.4.4}}}
\@writefile{brf}{\backcite{li2014modeling}{{42}{4.4.4}{subsection.4.4.4}}}
\@writefile{lot}{\contentsline {table}{\numberline {5}{\ignorespaces Users per clusters for Pam cluster method\relax }}{42}{table.caption.16}}
\newlabel{tab:users-clusters-table}{{\M@TitleReference {5}{Users per clusters for Pam cluster method\relax }}{42}{Users per clusters for Pam cluster method\relax }{table.caption.16}{}}
\@writefile{lof}{\contentsline {figure}{\numberline {3}{\ignorespaces Hierarchical Cluster Method x Average Silhouette Width}}{43}{figure.caption.15}}
\newlabel{fig:hierarchical-cluster-avg-silhouette-plot}{{\M@TitleReference {3}{Hierarchical Cluster Method x Average Silhouette Width}}{43}{Hierarchical Cluster Method x Average Silhouette Width}{figure.caption.15}{}}
\@writefile{lof}{\contentsline {figure}{\numberline {4}{\ignorespaces Optimization Cluster Method x Average Silhouette Width}}{43}{figure.caption.15}}
\newlabel{fig:optimization-cluster-avg-silhouette-plot}{{\M@TitleReference {4}{Optimization Cluster Method x Average Silhouette Width}}{43}{Optimization Cluster Method x Average Silhouette Width}{figure.caption.15}{}}
\@writefile{lof}{\contentsline {figure}{\numberline {5}{\ignorespaces Hierarchical Cluster Method x Elapsed Time}}{43}{figure.caption.15}}
\newlabel{fig:hierarchical-cluster-time-plot}{{\M@TitleReference {5}{Hierarchical Cluster Method x Elapsed Time}}{43}{Hierarchical Cluster Method x Elapsed Time}{figure.caption.15}{}}
\@writefile{lof}{\contentsline {figure}{\numberline {6}{\ignorespaces Optimization Cluster Method x Elapsed Time}}{43}{figure.caption.15}}
\newlabel{fig:optimization-cluster-time-plot}{{\M@TitleReference {6}{Optimization Cluster Method x Elapsed Time}}{43}{Optimization Cluster Method x Elapsed Time}{figure.caption.15}{}}
\@writefile{toc}{\contentsline {section}{\numberline {4.5}Replication and Testing}{43}{section.4.5}}
\@writefile{brf}{\backcite{li2014modeling, das2007google, mishra2014alternative, ji2016regularized, lu2014scalable, bai2017exploiting, jonnalagedda2016incorporating}{{43}{4.5}{section.4.5}}}
\@writefile{brf}{\backcite{li2014modeling, das2007google, mishra2014alternative, ji2016regularized, lu2014scalable, bai2017exploiting, jonnalagedda2016incorporating}{{43}{4.5}{section.4.5}}}
\@writefile{brf}{\backcite{li2014modeling, das2007google, mishra2014alternative, ji2016regularized, lu2014scalable, bai2017exploiting, jonnalagedda2016incorporating}{{43}{4.5}{section.4.5}}}
\@writefile{brf}{\backcite{li2014modeling, das2007google, mishra2014alternative, ji2016regularized, lu2014scalable, bai2017exploiting, jonnalagedda2016incorporating}{{43}{4.5}{section.4.5}}}
\@writefile{brf}{\backcite{li2014modeling, das2007google, mishra2014alternative, ji2016regularized, lu2014scalable, bai2017exploiting, jonnalagedda2016incorporating}{{43}{4.5}{section.4.5}}}
\@writefile{brf}{\backcite{li2014modeling, das2007google, mishra2014alternative, ji2016regularized, lu2014scalable, bai2017exploiting, jonnalagedda2016incorporating}{{43}{4.5}{section.4.5}}}
\@writefile{brf}{\backcite{li2014modeling, das2007google, mishra2014alternative, ji2016regularized, lu2014scalable, bai2017exploiting, jonnalagedda2016incorporating}{{43}{4.5}{section.4.5}}}
\@writefile{brf}{\backcite{bouras2014improving}{{43}{4.5}{section.4.5}}}
\BKM@entry{id=49,dest={73756273656374696F6E2E342E352E31},srcline={1248}}{53656C656374696E6720746865207265636F6D6D656E6465642061727469636C6573}
\@writefile{lot}{\contentsline {table}{\numberline {6}{\ignorespaces Users versus tags for Pam cluster method\relax }}{44}{table.caption.17}}
\newlabel{tab:users-clusters-tags-table}{{\M@TitleReference {6}{Users versus tags for Pam cluster method\relax }}{44}{Users versus tags for Pam cluster method\relax }{table.caption.17}{}}
\BKM@entry{id=50,dest={73756273656374696F6E2E342E352E32},srcline={1263}}{446566696E696E672061206D6574726963}
\citation{schroder2011setting}
\citation{schroder2011setting}
\@writefile{lot}{\contentsline {table}{\numberline {7}{\ignorespaces Dataset split\relax }}{45}{table.caption.19}}
\newlabel{dataset-split-table}{{\M@TitleReference {7}{Dataset split\relax }}{45}{Dataset split\relax }{table.caption.19}{}}
\@writefile{toc}{\contentsline {subsection}{\numberline {4.5.1}Selecting the recommended articles}{45}{subsection.4.5.1}}
\@writefile{toc}{\contentsline {subsection}{\numberline {4.5.2}Defining a metric}{45}{subsection.4.5.2}}
\@writefile{brf}{\backcite{schroder2011setting}{{45}{4.5.2}{subsection.4.5.2}}}
\@writefile{brf}{\backcite{schroder2011setting}{{45}{4.5.2}{subsection.4.5.2}}}
\citation{schroder2011setting}
\citation{schroder2011setting}
\citation{schroder2011setting}
\citation{schroder2011setting}
\citation{powers2011evaluation}
\citation{schroder2011setting}
\@writefile{lot}{\contentsline {table}{\numberline {8}{\ignorespaces Confusion matrix structure\relax }}{46}{table.caption.20}}
\newlabel{confusion-matrix-structure-table}{{\M@TitleReference {8}{Confusion matrix structure\relax }}{46}{Confusion matrix structure\relax }{table.caption.20}{}}
\@writefile{brf}{\backcite{schroder2011setting}{{46}{8}{table.caption.20}}}
\@writefile{brf}{\backcite{schroder2011setting}{{46}{8}{table.caption.20}}}
\@writefile{brf}{\backcite{powers2011evaluation}{{46}{4.5.2}{equation.4.5.9}}}
\@writefile{brf}{\backcite{schroder2011setting}{{46}{4.5.2}{equation.4.5.9}}}
\citation{powers2011evaluation}
\citation{powers2011evaluation}
\citation{powers2011evaluation}
\@writefile{brf}{\backcite{powers2011evaluation}{{47}{4.5.2}{Item.24}}}
\@writefile{brf}{\backcite{powers2011evaluation}{{47}{4.5.2}{Item.24}}}
\BKM@entry{id=51,dest={73756273656374696F6E2E342E352E33},srcline={1325}}{506172616D6574657273204F7074696D697A6174696F6E}
\citation{montgomery2017design}
\citation{Bartz-Beielstein2016n}
\citation{Bartz-Beielstein2016n}
\@writefile{brf}{\backcite{powers2011evaluation}{{48}{4.5.2}{Item.24}}}
\@writefile{toc}{\contentsline {subsection}{\numberline {4.5.3}Parameters Optimization}{48}{subsection.4.5.3}}
\@writefile{brf}{\backcite{montgomery2017design}{{48}{4.5.3}{subsection.4.5.3}}}
\@writefile{brf}{\backcite{Bartz-Beielstein2016n}{{48}{4.5.3}{subsection.4.5.3}}}
\@writefile{brf}{\backcite{Bartz-Beielstein2016n}{{48}{4.5.3}{subsection.4.5.3}}}
\citation{han2011data}
\@writefile{brf}{\backcite{han2011data}{{49}{4.5.3}{subsection.4.5.3}}}
\@writefile{lot}{\contentsline {table}{\numberline {9}{\ignorespaces Experiment's parameters bounds table\relax }}{49}{table.caption.21}}
\newlabel{parameters-bounds-table}{{\M@TitleReference {9}{Experiment's parameters bounds table\relax }}{49}{Experiment's parameters bounds table\relax }{table.caption.21}{}}
\BKM@entry{id=52,dest={636861707465722E35},srcline={1376}}{496D706C656D656E746174696F6E}
\BKM@entry{id=53,dest={73656374696F6E2E352E31},srcline={1379}}{496E667261737472756374757265}
\@writefile{toc}{\setlength  {\cftchapterindent }{0em} \setlength  {\cftchapternumwidth }{\cftlastnumwidth }}
\@writefile{toc}{\contentsline {chapter}{\chapternumberline {5}\MakeTextUppercase  {Implementation}}{50}{chapter.5}}
\@writefile{toc}{\contentsline {section}{\numberline {5.1}Infrastructure}{50}{section.5.1}}
\BKM@entry{id=54,dest={73656374696F6E2E352E32},srcline={1418}}{4461746120696D706F727420616E64207472616E73666F726D6174696F6E}
\@writefile{toc}{\contentsline {section}{\numberline {5.2}Data import and transformation}{51}{section.5.2}}
\newlabel{mod18}{{\M@TitleReference {5.2}{Data import and transformation}}{51}{Data import and transformation}{section.5.2}{}}
\@writefile{lot}{\contentsline {table}{\numberline {10}{\ignorespaces Exported data summary\relax }}{52}{table.caption.22}}
\newlabel{raw-data-summary-table}{{\M@TitleReference {10}{Exported data summary\relax }}{52}{Exported data summary\relax }{table.caption.22}{}}
\citation{ooms2017hunspell}
\citation{max2010mining}
\citation{falbel2016rslp}
\citation{orengo2001stemming}
\citation{orengo2001stemming}
\citation{postgresql2018schemas}
\@writefile{brf}{\backcite{ ooms2017hunspell}{{53}{5.2}{table.caption.22}}}
\@writefile{brf}{\backcite{max2010mining}{{53}{5.2}{table.caption.22}}}
\@writefile{brf}{\backcite{ falbel2016rslp}{{53}{5.2}{table.caption.22}}}
\@writefile{brf}{\backcite{orengo2001stemming}{{53}{5.2}{table.caption.22}}}
\@writefile{brf}{\backcite{orengo2001stemming}{{53}{5.2}{table.caption.22}}}
\@writefile{brf}{\backcite{postgresql2018schemas}{{54}{5.2}{Item.37}}}
\@writefile{lot}{\contentsline {table}{\numberline {11}{\ignorespaces Schemas summary\relax }}{54}{table.caption.23}}
\newlabel{schemas-table}{{\M@TitleReference {11}{Schemas summary\relax }}{54}{Schemas summary\relax }{table.caption.23}{}}
\BKM@entry{id=55,dest={73656374696F6E2E352E33},srcline={1553}}{5220536372697074}
\BKM@entry{id=56,dest={73756273656374696F6E2E352E332E31},srcline={1555}}{44697374616E6365732043616C63756C6174696F6E}
\@writefile{lot}{\contentsline {table}{\numberline {12}{\ignorespaces Events distribution over months for the original dataset\relax }}{55}{table.caption.24}}
\newlabel{events-versus-months-table}{{\M@TitleReference {12}{Events distribution over months for the original dataset\relax }}{55}{Events distribution over months for the original dataset\relax }{table.caption.24}{}}
\@writefile{toc}{\contentsline {section}{\numberline {5.3}R Script}{56}{section.5.3}}
\@writefile{toc}{\contentsline {subsection}{\numberline {5.3.1}Distances Calculation}{56}{subsection.5.3.1}}
\@writefile{lof}{\contentsline {figure}{\numberline {7}{\ignorespaces Distance calculation process.}}{57}{figure.caption.25}}
\newlabel{fig:hybrid-distance}{{\M@TitleReference {7}{Distance calculation process.}}{57}{Distance calculation process}{figure.caption.25}{}}
\citation{hornikRFAQ}
\citation{hornikRFAQ}
\newlabel{mod24}{{\M@TitleReference {5.3.1}{Distances Calculation}}{58}{Distances Calculation}{subsection.5.3.1}{}}
\@writefile{brf}{\backcite{hornikRFAQ}{{58}{5.3.1}{section*.26}}}
\@writefile{brf}{\backcite{hornikRFAQ}{{58}{5.3.1}{section*.26}}}
\citation{hornikRFAQ}
\citation{aycock2003brief}
\citation{tierneyCompilerPackage}
\citation{tierneyCompilerPackage}
\citation{wickham2014advanced}
\citation{eddelbuettel2011rcpp}
\citation{wild2009lsa}
\@writefile{brf}{\backcite{hornikRFAQ}{{59}{5.3.1}{equation.5.3.4}}}
\@writefile{brf}{\backcite{aycock2003brief}{{59}{5.3.1}{equation.5.3.4}}}
\@writefile{brf}{\backcite{tierneyCompilerPackage}{{59}{5.3.1}{equation.5.3.4}}}
\@writefile{brf}{\backcite{tierneyCompilerPackage}{{59}{5.3.1}{equation.5.3.4}}}
\@writefile{brf}{\backcite{wickham2014advanced}{{59}{5.3.1}{equation.5.3.4}}}
\@writefile{brf}{\backcite{eddelbuettel2011rcpp}{{59}{5.3.1}{equation.5.3.4}}}
\@writefile{lof}{\contentsline {figure}{\numberline {8}{\ignorespaces Weighted Jaccard Distance Implementations Performance}}{59}{figure.caption.27}}
\newlabel{fig:weighted-jaccard-test-plot}{{\M@TitleReference {8}{Weighted Jaccard Distance Implementations Performance}}{59}{Weighted Jaccard Distance Implementations Performance}{figure.caption.27}{}}
\citation{bates2017package}
\citation{cysouw2015package}
\BKM@entry{id=57,dest={73756273656374696F6E2E352E332E32},srcline={1615}}{436C7573746572696E67}
\citation{rousseeuw1990finding}
\citation{maechler2014package}
\citation{mouselimis2018package}
\citation{maechler2014package}
\citation{mouselimis2018package}
\citation{mullner2013fastcluster}
\BKM@entry{id=58,dest={73756273656374696F6E2E352E332E33},srcline={1622}}{536F6C7574696F6E204576616C756174696F6E}
\@writefile{brf}{\backcite{wild2009lsa}{{60}{5.3.1}{section*.28}}}
\@writefile{brf}{\backcite{bates2017package}{{60}{5.3.1}{section*.28}}}
\@writefile{brf}{\backcite{cysouw2015package}{{60}{5.3.1}{section*.28}}}
\@writefile{toc}{\contentsline {subsection}{\numberline {5.3.2}Clustering}{60}{subsection.5.3.2}}
\@writefile{brf}{\backcite{rousseeuw1990finding}{{60}{5.3.2}{subsection.5.3.2}}}
\@writefile{brf}{\backcite{maechler2014package}{{60}{5.3.2}{subsection.5.3.2}}}
\@writefile{brf}{\backcite{mouselimis2018package}{{60}{5.3.2}{subsection.5.3.2}}}
\@writefile{brf}{\backcite{maechler2014package}{{60}{5.3.2}{subsection.5.3.2}}}
\@writefile{brf}{\backcite{mouselimis2018package}{{60}{5.3.2}{subsection.5.3.2}}}
\@writefile{brf}{\backcite{mullner2013fastcluster}{{60}{5.3.2}{subsection.5.3.2}}}
\@writefile{toc}{\contentsline {subsection}{\numberline {5.3.3}Solution Evaluation}{60}{subsection.5.3.3}}
\citation{bartz2010spot}
\BKM@entry{id=59,dest={73756273656374696F6E2E352E332E34},srcline={1627}}{4F7074696D697A6174696F6E2050726F6365737320506572666F726D616E6365}
\@writefile{brf}{\backcite{bartz2010spot}{{61}{5.3.3}{subsection.5.3.3}}}
\@writefile{toc}{\contentsline {subsection}{\numberline {5.3.4}Optimization Process Performance}{61}{subsection.5.3.4}}
\BKM@entry{id=60,dest={636861707465722E36},srcline={1634}}{526573756C7473}
\@writefile{toc}{\setlength  {\cftchapterindent }{0em} \setlength  {\cftchapternumwidth }{\cftlastnumwidth }}
\@writefile{toc}{\contentsline {chapter}{\chapternumberline {6}\MakeTextUppercase  {Results}}{63}{chapter.6}}
\@writefile{lot}{\contentsline {table}{\numberline {13}{\ignorespaces Experiment Summary\relax }}{63}{table.caption.29}}
\newlabel{experiment-summary-table}{{\M@TitleReference {13}{Experiment Summary\relax }}{63}{Experiment Summary\relax }{table.caption.29}{}}
\@writefile{lof}{\contentsline {figure}{\numberline {9}{\ignorespaces Informedness results evolution through 200 runs of each experiment}}{64}{figure.caption.30}}
\newlabel{fig:experiments-results-plot}{{\M@TitleReference {9}{Informedness results evolution through 200 runs of each experiment}}{64}{Informedness results evolution through 200 runs of each experiment}{figure.caption.30}{}}
\@writefile{lof}{\contentsline {figure}{\numberline {10}{\ignorespaces Informedness results boxplot after 200 runs of each experiment}}{64}{figure.caption.31}}
\newlabel{fig:experiments-results-box-plot}{{\M@TitleReference {10}{Informedness results boxplot after 200 runs of each experiment}}{64}{Informedness results boxplot after 200 runs of each experiment}{figure.caption.31}{}}
\newlabel{errata:2}{{\M@TitleReference {6}{\MakeTextUppercase  {Results}}}{64}{Results}{figure.caption.32}{}}
\@writefile{lof}{\contentsline {figure}{\numberline {11}{\ignorespaces Experiments' Best Parameter Values}}{65}{figure.caption.32}}
\newlabel{experiments-best-parameters-table}{{\M@TitleReference {11}{Experiments' Best Parameter Values}}{65}{Experiments' Best Parameter Values}{figure.caption.32}{}}
\@writefile{lof}{\contentsline {figure}{\numberline {12}{\ignorespaces Users versus Clusters per Experiment's Best Solution}}{65}{figure.caption.33}}
\newlabel{fig:experiments-users-versus-clusters-plot}{{\M@TitleReference {12}{Users versus Clusters per Experiment's Best Solution}}{65}{Users versus Clusters per Experiment's Best Solution}{figure.caption.33}{}}
\newlabel{mod19}{{\M@TitleReference {6}{\MakeTextUppercase  {Results}}}{66}{Results}{figure.caption.33}{}}
\@writefile{lot}{\contentsline {table}{\numberline {14}{\ignorespaces Experiments' Results Metrics Summary\relax }}{66}{table.caption.34}}
\newlabel{results-metrics-summary-table}{{\M@TitleReference {14}{Experiments' Results Metrics Summary\relax }}{66}{Experiments' Results Metrics Summary\relax }{table.caption.34}{}}
\newlabel{mod20}{{\M@TitleReference {6}{\MakeTextUppercase  {Results}}}{67}{Results}{table.caption.34}{}}
\@writefile{lot}{\contentsline {table}{\numberline {15}{\ignorespaces PAM experiments top 6 clusters word clouds, according to user count\relax }}{68}{table.caption.35}}
\newlabel{pam-wordclouds-table}{{\M@TitleReference {15}{PAM experiments top 6 clusters word clouds, according to user count\relax }}{68}{PAM experiments top 6 clusters word clouds, according to user count\relax }{table.caption.35}{}}
\@writefile{lot}{\contentsline {table}{\numberline {16}{\ignorespaces Ward.D experiments top 6 clusters word clouds, according to user count\relax }}{69}{table.caption.36}}
\newlabel{ward-d-wordclouds-table}{{\M@TitleReference {16}{Ward.D experiments top 6 clusters word clouds, according to user count\relax }}{69}{Ward.D experiments top 6 clusters word clouds, according to user count\relax }{table.caption.36}{}}
\BKM@entry{id=61,dest={636861707465722E37},srcline={1848}}{436F6E636C7573696F6E}
\@writefile{toc}{\setlength  {\cftchapterindent }{0em} \setlength  {\cftchapternumwidth }{\cftlastnumwidth }}
\@writefile{toc}{\contentsline {chapter}{\chapternumberline {7}\MakeTextUppercase  {Conclusion}}{70}{chapter.7}}
\newlabel{mod21}{{\M@TitleReference {7}{\MakeTextUppercase  {Conclusion}}}{71}{Conclusion}{chapter.7}{}}
\newlabel{mod22}{{\M@TitleReference {7}{\MakeTextUppercase  {Conclusion}}}{71}{Conclusion}{chapter.7}{}}
\BKM@entry{id=62,dest={73756273656374696F6E2E372E302E31},srcline={1879}}{5265636F6D6D656E646174696F6E7320616E64206675747572652073747564696573}
\@writefile{toc}{\contentsline {subsection}{\numberline {7.0.1}Recommendations and future studies}{72}{subsection.7.0.1}}
\newlabel{mod23}{{\M@TitleReference {7.0.1}{Recommendations and future studies}}{72}{Recommendations and future studies}{subsection.7.0.1}{}}
\bibdata{abntex2-options,ufrgs_ppga_mp_final_project_douglas}
\@writefile{toc}{\vspace  {\cftbeforechapterskip }}
\@writefile{toc}{\vspace  {\cftbeforechapterskip }}
\BKM@entry{id=63,dest={73656374696F6E2A2E3430},srcline={3}}{5265666572656E636573}
\bibcite{aggarwal2012mining}{Aggarwal e Zhai 2012}
\bibciteEXPL{aggarwal2012mining}{Aggarwal e Zhai}
\bibciteIMPL{aggarwal2012mining}{AGGARWAL; ZHAI}
\bibciteYEAR{aggarwal2012mining}{2012}
\bibcite{arora2016analysis}{Arora, Varshney e Deepali 2016}
\bibciteEXPL{arora2016analysis}{Arora, Varshney e Deepali}
\bibciteIMPL{arora2016analysis}{ARORA; VARSHNEY; DEEPALI}
\bibciteYEAR{arora2016analysis}{2016}
\bibcite{aycock2003brief}{Aycock 2003}
\bibciteEXPL{aycock2003brief}{Aycock}
\bibciteIMPL{aycock2003brief}{AYCOCK}
\bibciteYEAR{aycock2003brief}{2003}
\bibcite{bai2017exploiting}{Bai et al. 2017}
\bibciteEXPL{bai2017exploiting}{Bai et al.}
\bibciteIMPL{bai2017exploiting}{BAI et al.}
\bibciteYEAR{bai2017exploiting}{2017}
\bibcite{bartz2010spot}{Bartz-Beielstein 2010}
\bibciteEXPL{bartz2010spot}{Bartz-Beielstein}
\bibciteIMPL{bartz2010spot}{BARTZ-BEIELSTEIN}
\bibciteYEAR{bartz2010spot}{2010}
\bibcite{Bartz-Beielstein2016n}{Bartz-Beielstein e Zaefferer 2017}
\bibciteEXPL{Bartz-Beielstein2016n}{Bartz-Beielstein e Zaefferer}
\bibciteIMPL{Bartz-Beielstein2016n}{BARTZ-BEIELSTEIN; ZAEFFERER}
\bibciteYEAR{Bartz-Beielstein2016n}{2017}
\bibcite{bates2017package}{Bates, Maechler e Maechler 2017}
\bibciteEXPL{bates2017package}{Bates, Maechler e Maechler}
\bibciteIMPL{bates2017package}{BATES; MAECHLER; MAECHLER}
\bibciteYEAR{bates2017package}{2017}
\bibcite{baxter1994exploratory}{Baxter 1994}
\bibciteEXPL{baxter1994exploratory}{Baxter}
\bibciteIMPL{baxter1994exploratory}{BAXTER}
\bibciteYEAR{baxter1994exploratory}{1994}
\bibcite{bouras2014improving}{Bouras e Tsogkas 2014}
\bibciteEXPL{bouras2014improving}{Bouras e Tsogkas}
\bibciteIMPL{bouras2014improving}{BOURAS; TSOGKAS}
\bibciteYEAR{bouras2014improving}{2014}
\bibcite{grandesDadosgloboBigData}{Cavani 2015}
\bibciteEXPL{grandesDadosgloboBigData}{Cavani}
\bibciteIMPL{grandesDadosgloboBigData}{CAVANI}
\bibciteYEAR{grandesDadosgloboBigData}{2015}
\bibcite{cherubini2016editorial}{Cherubini e Nielsen 2016}
\bibciteEXPL{cherubini2016editorial}{Cherubini e Nielsen}
\bibciteIMPL{cherubini2016editorial}{CHERUBINI; NIELSEN}
\bibciteYEAR{cherubini2016editorial}{2016}
\bibcite{coletiva2016pertojunto}{Coletiva Editora 2016}
\bibciteEXPL{coletiva2016pertojunto}{Coletiva Editora}
\bibciteIMPL{coletiva2016pertojunto}{COLETIVA EDITORA}
\bibciteYEAR{coletiva2016pertojunto}{2016}
\bibcite{cysouw2015package}{Cysouw, Cysouw e Suggests 2015}
\bibciteEXPL{cysouw2015package}{Cysouw, Cysouw e Suggests}
\bibciteIMPL{cysouw2015package}{CYSOUW; CYSOUW; SUGGESTS}
\bibciteYEAR{cysouw2015package}{2015}
\bibcite{das2007google}{Das et al. 2007}
\bibciteEXPL{das2007google}{Das et al.}
\bibciteIMPL{das2007google}{DAS et al.}
\bibciteYEAR{das2007google}{2007}
\@writefile{toc}{\setlength  {\cftchapterindent }{\cftlastnumwidth } \setlength  {\cftchapternumwidth }{2em}}
\@writefile{toc}{\contentsline {chapter}{\uppercase {References}}{74}{section*.40}}
\bibcite{dong2015ubs}{Dong et al. 2015}
\bibciteEXPL{dong2015ubs}{Dong et al.}
\bibciteIMPL{dong2015ubs}{DONG et al.}
\bibciteYEAR{dong2015ubs}{2015}
\bibcite{doyle2015multi}{Doyle 2015}
\bibciteEXPL{doyle2015multi}{Doyle}
\bibciteIMPL{doyle2015multi}{DOYLE}
\bibciteYEAR{doyle2015multi}{2015}
\bibcite{eddelbuettel2011rcpp}{Eddelbuettel et al. 2011}
\bibciteEXPL{eddelbuettel2011rcpp}{Eddelbuettel et al.}
\bibciteIMPL{eddelbuettel2011rcpp}{EDDELBUETTEL et al.}
\bibciteYEAR{eddelbuettel2011rcpp}{2011}
\bibcite{everitt2011cluster}{Everitt et al. 2011}
\bibciteEXPL{everitt2011cluster}{Everitt et al.}
\bibciteIMPL{everitt2011cluster}{EVERITT et al.}
\bibciteYEAR{everitt2011cluster}{2011}
\bibcite{faccin2009zero}{Faccin 2009}
\bibciteEXPL{faccin2009zero}{Faccin}
\bibciteIMPL{faccin2009zero}{FACCIN}
\bibciteYEAR{faccin2009zero}{2009}
\bibcite{falbel2016rslp}{Falbel 2016}
\bibciteEXPL{falbel2016rslp}{Falbel}
\bibciteIMPL{falbel2016rslp}{FALBEL}
\bibciteYEAR{falbel2016rslp}{2016}
\bibcite{gruporbs2017site}{Grupo RBS 2017}
\bibciteEXPL{gruporbs2017site}{Grupo RBS}
\bibciteIMPL{gruporbs2017site}{GRUPO RBS}
\bibciteYEAR{gruporbs2017site}{2017}
\bibcite{gu2016personalized}{Gu, Dong e Chen 2016}
\bibciteEXPL{gu2016personalized}{Gu, Dong e Chen}
\bibciteIMPL{gu2016personalized}{GU; DONG; CHEN}
\bibciteYEAR{gu2016personalized}{2016}
\bibcite{hair2013multivariate}{Hair et al. 2013}
\bibciteEXPL{hair2013multivariate}{Hair et al.}
\bibciteIMPL{hair2013multivariate}{HAIR et al.}
\bibciteYEAR{hair2013multivariate}{2013}
\bibcite{han2011data}{Han, Pei e Kamber 2011}
\bibciteEXPL{han2011data}{Han, Pei e Kamber}
\bibciteIMPL{han2011data}{HAN; PEI; KAMBER}
\bibciteYEAR{han2011data}{2011}
\bibcite{zh2015zhdigital}{Hora 2015}
\bibciteEXPL{zh2015zhdigital}{Hora}
\bibciteIMPL{zh2015zhdigital}{HORA}
\bibciteYEAR{zh2015zhdigital}{2015a}
\bibcite{zh2015zhtablet}{Hora 2015}
\bibciteEXPL{zh2015zhtablet}{Hora}
\bibciteIMPL{zh2015zhtablet}{HORA}
\bibciteYEAR{zh2015zhtablet}{2015b}
\bibcite{zh2016newsletter}{Hora 2016}
\bibciteEXPL{zh2016newsletter}{Hora}
\bibciteIMPL{zh2016newsletter}{HORA}
\bibciteYEAR{zh2016newsletter}{2016}
\bibcite{hornikRFAQ}{Hornik 2017}
\bibciteEXPL{hornikRFAQ}{Hornik}
\bibciteIMPL{hornikRFAQ}{HORNIK}
\bibciteYEAR{hornikRFAQ}{2017}
\bibcite{ji2016regularized}{Ji et al. 2016}
\bibciteEXPL{ji2016regularized}{Ji et al.}
\bibciteIMPL{ji2016regularized}{JI et al.}
\bibciteYEAR{ji2016regularized}{2016}
\bibcite{jonnalagedda2016incorporating}{Jonnalagedda et al. 2016}
\bibciteEXPL{jonnalagedda2016incorporating}{Jonnalagedda et al.}
\bibciteIMPL{jonnalagedda2016incorporating}{JONNALAGEDDA et al.}
\bibciteYEAR{jonnalagedda2016incorporating}{2016}
\bibcite{zeroHoraIVC}{Jung 2016}
\bibciteEXPL{zeroHoraIVC}{Jung}
\bibciteIMPL{zeroHoraIVC}{JUNG}
\bibciteYEAR{zeroHoraIVC}{2016}
\bibcite{kille2015stream}{Kille et al. 2015}
\bibciteEXPL{kille2015stream}{Kille et al.}
\bibciteIMPL{kille2015stream}{KILLE et al.}
\bibciteYEAR{kille2015stream}{2015}
\bibcite{koren2009matrix}{Koren, Bell e Volinsky 2009}
\bibciteEXPL{koren2009matrix}{Koren, Bell e Volinsky}
\bibciteIMPL{koren2009matrix}{KOREN; BELL; VOLINSKY}
\bibciteYEAR{koren2009matrix}{2009}
\bibcite{li2014modeling}{Li et al. 2014}
\bibciteEXPL{li2014modeling}{Li et al.}
\bibciteIMPL{li2014modeling}{LI et al.}
\bibciteYEAR{li2014modeling}{2014}
\bibcite{g12016rbsvendesc}{Lima 2016}
\bibciteEXPL{g12016rbsvendesc}{Lima}
\bibciteIMPL{g12016rbsvendesc}{LIMA}
\bibciteYEAR{g12016rbsvendesc}{2016}
\bibcite{lin2014personalized}{Lin et al. 2014}
\bibciteEXPL{lin2014personalized}{Lin et al.}
\bibciteIMPL{lin2014personalized}{LIN et al.}
\bibciteYEAR{lin2014personalized}{2014}
\bibcite{lu2014scalable}{Lu et al. 2014}
\bibciteEXPL{lu2014scalable}{Lu et al.}
\bibciteIMPL{lu2014scalable}{LU et al.}
\bibciteYEAR{lu2014scalable}{2014}
\bibcite{maechler2014package}{Maechler et al. 2014}
\bibciteEXPL{maechler2014package}{Maechler et al.}
\bibciteIMPL{maechler2014package}{MAECHLER et al.}
\bibciteYEAR{maechler2014package}{2014}
\bibcite{max2010mining}{Max e Wisniewski 2010}
\bibciteEXPL{max2010mining}{Max e Wisniewski}
\bibciteIMPL{max2010mining}{MAX; WISNIEWSKI}
\bibciteYEAR{max2010mining}{2010}
\bibcite{milligan1996clustering}{Milligan 1996}
\bibciteEXPL{milligan1996clustering}{Milligan}
\bibciteIMPL{milligan1996clustering}{MILLIGAN}
\bibciteYEAR{milligan1996clustering}{1996}
\bibcite{mishra2014alternative}{Mishra, Kumar e Bhasker 2014}
\bibciteEXPL{mishra2014alternative}{Mishra, Kumar e Bhasker}
\bibciteIMPL{mishra2014alternative}{MISHRA; KUMAR; BHASKER}
\bibciteYEAR{mishra2014alternative}{2014}
\bibcite{montgomery2017design}{Montgomery 2017}
\bibciteEXPL{montgomery2017design}{Montgomery}
\bibciteIMPL{montgomery2017design}{MONTGOMERY}
\bibciteYEAR{montgomery2017design}{2017}
\bibcite{mouselimis2018package}{Mouselimis 2018}
\bibciteEXPL{mouselimis2018package}{Mouselimis}
\bibciteIMPL{mouselimis2018package}{MOUSELIMIS}
\bibciteYEAR{mouselimis2018package}{2018}
\bibcite{mullner2013fastcluster}{M{\"u}llner et al. 2013}
\bibciteEXPL{mullner2013fastcluster}{M{\"u}llner et al.}
\bibciteIMPL{mullner2013fastcluster}{M{\"U}LLNER et al.}
\bibciteYEAR{mullner2013fastcluster}{2013}
\bibcite{murtagh2014ward}{Murtagh e Legendre 2014}
\bibciteEXPL{murtagh2014ward}{Murtagh e Legendre}
\bibciteIMPL{murtagh2014ward}{MURTAGH; LEGENDRE}
\bibciteYEAR{murtagh2014ward}{2014}
\bibcite{newman2016reuters}{Newman et al. 2016}
\bibciteEXPL{newman2016reuters}{Newman et al.}
\bibciteIMPL{newman2016reuters}{NEWMAN et al.}
\bibciteYEAR{newman2016reuters}{2016}
\bibcite{ooms2017hunspell}{Ooms 2017}
\bibciteEXPL{ooms2017hunspell}{Ooms}
\bibciteIMPL{ooms2017hunspell}{OOMS}
\bibciteYEAR{ooms2017hunspell}{2017}
\bibcite{orengo2001stemming}{Orengo e Huyck 2001}
\bibciteEXPL{orengo2001stemming}{Orengo e Huyck}
\bibciteIMPL{orengo2001stemming}{ORENGO; HUYCK}
\bibciteYEAR{orengo2001stemming}{2001}
\bibcite{amanha500maioressul}{Peres e Biedermann 2014}
\bibciteEXPL{amanha500maioressul}{Peres e Biedermann}
\bibciteIMPL{amanha500maioressul}{PERES; BIEDERMANN}
\bibciteYEAR{amanha500maioressul}{2014}
\bibcite{postgresql2018schemas}{PostgreSQL 2018}
\bibciteEXPL{postgresql2018schemas}{PostgreSQL}
\bibciteIMPL{postgresql2018schemas}{POSTGRESQL}
\bibciteYEAR{postgresql2018schemas}{2018}
\bibcite{powers2011evaluation}{Powers 2011}
\bibciteEXPL{powers2011evaluation}{Powers}
\bibciteIMPL{powers2011evaluation}{POWERS}
\bibciteYEAR{powers2011evaluation}{2011}
\bibcite{rousseeuw1990finding}{Rousseeuw e Kaufman 1990}
\bibciteEXPL{rousseeuw1990finding}{Rousseeuw e Kaufman}
\bibciteIMPL{rousseeuw1990finding}{ROUSSEEUW; KAUFMAN}
\bibciteYEAR{rousseeuw1990finding}{1990}
\bibcite{schlesinger2015organizational}{Schlesinger e Doyle 2015}
\bibciteEXPL{schlesinger2015organizational}{Schlesinger e Doyle}
\bibciteIMPL{schlesinger2015organizational}{SCHLESINGER; DOYLE}
\bibciteYEAR{schlesinger2015organizational}{2015}
\bibcite{schroder2011setting}{Schr{\"o}der, Thiele e Lehner 2011}
\bibciteEXPL{schroder2011setting}{Schr{\"o}der, Thiele e Lehner}
\bibciteIMPL{schroder2011setting}{SCHR{\"O}DER; THIELE; LEHNER}
\bibciteYEAR{schroder2011setting}{2011}
\bibcite{shi2014collaborative}{Shi, Larson e Hanjalic 2014}
\bibciteEXPL{shi2014collaborative}{Shi, Larson e Hanjalic}
\bibciteIMPL{shi2014collaborative}{SHI; LARSON; HANJALIC}
\bibciteYEAR{shi2014collaborative}{2014}
\bibcite{signori2016digital}{Signori e Flint 2016}
\bibciteEXPL{signori2016digital}{Signori e Flint}
\bibciteIMPL{signori2016digital}{SIGNORI; FLINT}
\bibciteYEAR{signori2016digital}{2016}
\bibcite{song2016multi}{Song, Elkahky e He 2016}
\bibciteEXPL{song2016multi}{Song, Elkahky e He}
\bibciteIMPL{song2016multi}{SONG; ELKAHKY; HE}
\bibciteYEAR{song2016multi}{2016}
\bibcite{tandoc2014journalism}{Tandoc 2014}
\bibciteEXPL{tandoc2014journalism}{Tandoc}
\bibciteIMPL{tandoc2014journalism}{TANDOC}
\bibciteYEAR{tandoc2014journalism}{2014}
\bibcite{tierneyCompilerPackage}{Tierney 2018}
\bibciteEXPL{tierneyCompilerPackage}{Tierney}
\bibciteIMPL{tierneyCompilerPackage}{TIERNEY}
\bibciteYEAR{tierneyCompilerPackage}{2018}
\bibcite{velmurugan2012efficiency}{Velmurugan 2012}
\bibciteEXPL{velmurugan2012efficiency}{Velmurugan}
\bibciteIMPL{velmurugan2012efficiency}{VELMURUGAN}
\bibciteYEAR{velmurugan2012efficiency}{2012}
\bibcite{velmurugan2010computational}{Velmurugan e Santhanam 2010}
\bibciteEXPL{velmurugan2010computational}{Velmurugan e Santhanam}
\bibciteIMPL{velmurugan2010computational}{VELMURUGAN; SANTHANAM}
\bibciteYEAR{velmurugan2010computational}{2010}
\bibcite{wickham2014advanced}{Wickham 2014}
\bibciteEXPL{wickham2014advanced}{Wickham}
\bibciteIMPL{wickham2014advanced}{WICKHAM}
\bibciteYEAR{wickham2014advanced}{2014}
\bibcite{wild2009lsa}{Wild, Rstem e Wild 2009}
\bibciteEXPL{wild2009lsa}{Wild, Rstem e Wild}
\bibciteIMPL{wild2009lsa}{WILD; RSTEM; WILD}
\bibciteYEAR{wild2009lsa}{2009}
\bibcite{zhao2016personalized}{Zhao et al. 2016}
\bibciteEXPL{zhao2016personalized}{Zhao et al.}
\bibciteIMPL{zhao2016personalized}{ZHAO et al.}
\bibciteYEAR{zhao2016personalized}{2016}
\bibcite{zheng2013penetrate}{Zheng et al. 2013}
\bibciteEXPL{zheng2013penetrate}{Zheng et al.}
\bibciteIMPL{zheng2013penetrate}{ZHENG et al.}
\bibciteYEAR{zheng2013penetrate}{2013}
\@writefile{toc}{\vspace  {\cftbeforechapterskip }}
\newlabel{LastPage}{{}{78}{}{page.78}{}}
\xdef\lastpage@lastpage{78}
\xdef\lastpage@lastpageHy{78}
\bibstyle{abntex2-alf}
\memsetcounter{lastsheet}{79}
\memsetcounter{lastpage}{78}
